G04 DesignSpark PCB Gerber Version 9.0 Build 5138 *
%FSLAX35Y35*%
%MOIN*%
%ADD122R,0.02047X0.05000*%
%ADD72R,0.02441X0.05984*%
%ADD18R,0.02835X0.04606*%
%ADD17R,0.04016X0.07953*%
%ADD118R,0.05579X0.06079*%
%ADD29R,0.05984X0.18583*%
%ADD28R,0.12283X0.16614*%
%ADD11C,0.00500*%
%ADD25C,0.06079*%
%ADD16C,0.06496*%
%ADD121R,0.04803X0.01654*%
%ADD120R,0.05591X0.01850*%
%ADD20R,0.06772X0.01850*%
%ADD119R,0.05000X0.02047*%
%ADD21R,0.05394X0.02441*%
%ADD73R,0.05984X0.02441*%
%ADD23R,0.06094X0.02638*%
%ADD27R,0.04606X0.02835*%
%ADD71R,0.09134X0.02835*%
%ADD22R,0.07953X0.04016*%
%ADD117R,0.06079X0.05579*%
%ADD70R,0.18583X0.05984*%
%ADD19R,0.16614X0.12283*%
%ADD24C,0.08740*%
X0Y0D02*
D02*
D11*
X250Y250D02*
X510250D01*
Y500250*
X250*
Y250*
D02*
D16*
X30250Y20250D03*
Y30250D03*
Y40250D03*
Y50250D03*
Y60250D03*
Y70250D03*
Y80250D03*
Y90250D03*
Y100250D03*
Y110250D03*
Y120250D03*
Y130250D03*
Y140250D03*
Y150250D03*
Y160250D03*
Y170250D03*
Y190250D03*
Y200250D03*
Y210250D03*
Y220250D03*
Y230250D03*
Y240250D03*
Y250250D03*
Y260250D03*
Y270250D03*
Y280250D03*
Y290250D03*
Y300250D03*
Y310250D03*
Y320250D03*
X40250Y20250D03*
Y30250D03*
Y40250D03*
Y50250D03*
Y60250D03*
Y70250D03*
Y80250D03*
Y90250D03*
Y100250D03*
Y110250D03*
Y120250D03*
Y130250D03*
Y140250D03*
Y150250D03*
Y160250D03*
Y170250D03*
Y190250D03*
Y200250D03*
Y210250D03*
Y220250D03*
Y230250D03*
Y240250D03*
Y250250D03*
Y260250D03*
Y270250D03*
Y280250D03*
Y290250D03*
Y300250D03*
Y310250D03*
Y320250D03*
Y340250D03*
Y350250D03*
Y360250D03*
Y370250D03*
Y380250D03*
Y390250D03*
Y400250D03*
Y410250D03*
Y420250D03*
Y430250D03*
Y440250D03*
Y450250D03*
Y460250D03*
Y470250D03*
X50250Y340250D03*
Y350250D03*
Y360250D03*
Y370250D03*
Y380250D03*
Y390250D03*
Y400250D03*
Y410250D03*
Y420250D03*
Y430250D03*
Y440250D03*
Y450250D03*
Y460250D03*
Y470250D03*
X76732Y164226D03*
Y174226D03*
Y184226D03*
Y324226D03*
X79232Y10476D03*
Y20476D03*
Y30476D03*
Y40476D03*
X86732Y164226D03*
Y174226D03*
Y184226D03*
Y324226D03*
X89232Y10476D03*
Y20476D03*
Y30476D03*
Y40476D03*
X96732Y164226D03*
Y174226D03*
Y184226D03*
X99232Y460476D03*
Y470476D03*
Y480476D03*
X109232Y460476D03*
Y470476D03*
Y480476D03*
X129232Y10476D03*
Y20476D03*
Y30476D03*
Y40476D03*
X136732Y164226D03*
Y174226D03*
Y184226D03*
X139232Y10476D03*
Y20476D03*
Y30476D03*
Y40476D03*
Y460476D03*
Y470476D03*
Y480476D03*
X146732Y164226D03*
Y174226D03*
Y184226D03*
Y314226D03*
Y324226D03*
Y334226D03*
Y344226D03*
X149232Y460476D03*
Y470476D03*
Y480476D03*
X156732Y164226D03*
Y174226D03*
Y184226D03*
Y314226D03*
Y324226D03*
Y334226D03*
Y344226D03*
X190250Y340250D03*
Y350250D03*
Y360250D03*
Y370250D03*
Y380250D03*
Y390250D03*
Y400250D03*
Y410250D03*
Y420250D03*
Y430250D03*
Y440250D03*
Y450250D03*
Y460250D03*
Y470250D03*
X200250Y20250D03*
Y30250D03*
Y40250D03*
Y50250D03*
Y60250D03*
Y70250D03*
Y80250D03*
Y90250D03*
Y100250D03*
Y110250D03*
Y120250D03*
Y130250D03*
Y140250D03*
Y150250D03*
Y160250D03*
Y170250D03*
Y190250D03*
Y200250D03*
Y210250D03*
Y220250D03*
Y230250D03*
Y240250D03*
Y250250D03*
Y260250D03*
Y270250D03*
Y280250D03*
Y290250D03*
Y300250D03*
Y310250D03*
Y320250D03*
Y340250D03*
Y350250D03*
Y360250D03*
Y370250D03*
Y380250D03*
Y390250D03*
Y400250D03*
Y410250D03*
Y420250D03*
Y430250D03*
Y440250D03*
Y450250D03*
Y460250D03*
Y470250D03*
X210250Y20250D03*
Y30250D03*
Y40250D03*
Y50250D03*
Y60250D03*
Y70250D03*
Y80250D03*
Y90250D03*
Y100250D03*
Y110250D03*
Y120250D03*
Y130250D03*
Y140250D03*
Y150250D03*
Y160250D03*
Y170250D03*
Y190250D03*
Y200250D03*
Y210250D03*
Y220250D03*
Y230250D03*
Y240250D03*
Y250250D03*
Y260250D03*
Y270250D03*
Y280250D03*
Y290250D03*
Y300250D03*
Y310250D03*
Y320250D03*
X236732Y204226D03*
Y214226D03*
Y224226D03*
Y264226D03*
Y274226D03*
Y284226D03*
X244232Y50476D03*
Y60476D03*
Y70476D03*
Y80476D03*
X246732Y204226D03*
Y214226D03*
Y224226D03*
Y264226D03*
Y274226D03*
Y284226D03*
X249232Y10476D03*
Y20476D03*
Y30476D03*
X254232Y50476D03*
Y60476D03*
Y70476D03*
Y80476D03*
X256732Y204226D03*
Y214226D03*
Y224226D03*
Y264226D03*
Y274226D03*
Y284226D03*
X259232Y10476D03*
Y20476D03*
Y30476D03*
X260250Y330250D03*
Y340250D03*
Y350250D03*
Y360250D03*
Y370250D03*
Y380250D03*
Y390250D03*
Y400250D03*
Y410250D03*
Y420250D03*
Y430250D03*
Y440250D03*
Y450250D03*
Y460250D03*
Y470250D03*
Y480250D03*
X270250Y330250D03*
Y340250D03*
Y350250D03*
Y360250D03*
Y370250D03*
Y380250D03*
Y390250D03*
Y400250D03*
Y410250D03*
Y420250D03*
Y430250D03*
Y440250D03*
Y450250D03*
Y460250D03*
Y470250D03*
Y480250D03*
X279982Y95226D03*
Y105226D03*
Y115226D03*
Y125226D03*
Y135226D03*
Y145226D03*
Y155226D03*
Y165226D03*
X286732Y204226D03*
Y214226D03*
X289232Y10476D03*
Y20476D03*
Y30476D03*
X289982Y95226D03*
Y105226D03*
Y115226D03*
Y125226D03*
Y135226D03*
Y145226D03*
Y155226D03*
Y165226D03*
X294232Y50476D03*
Y60476D03*
Y70476D03*
Y80476D03*
X296732Y204226D03*
Y214226D03*
Y274226D03*
Y284226D03*
X299232Y10476D03*
Y20476D03*
Y30476D03*
X299982Y95226D03*
Y105226D03*
Y115226D03*
Y125226D03*
Y135226D03*
Y145226D03*
Y155226D03*
Y165226D03*
X304232Y50476D03*
Y60476D03*
Y70476D03*
Y80476D03*
X306732Y204226D03*
Y214226D03*
X316732Y204226D03*
Y214226D03*
X329732Y40226D03*
Y50226D03*
X329982Y60226D03*
X339732Y40226D03*
Y50226D03*
Y200226D03*
Y210476D03*
Y302476D03*
X339982Y60226D03*
X340209Y190976D03*
X349732Y40226D03*
Y50226D03*
Y200226D03*
Y210476D03*
Y302476D03*
X349982Y60226D03*
X350209Y190976D03*
X359732Y40226D03*
Y50226D03*
Y200226D03*
Y210476D03*
Y302476D03*
X359982Y60226D03*
X360209Y190976D03*
X369732Y40226D03*
Y50226D03*
Y200226D03*
Y210476D03*
Y302476D03*
X369982Y60226D03*
X370209Y190976D03*
X379732Y40226D03*
Y50226D03*
Y200226D03*
Y210476D03*
Y302476D03*
X379982Y60226D03*
X380209Y190976D03*
X389732Y40226D03*
Y50226D03*
Y200226D03*
Y210476D03*
Y302476D03*
X389982Y60226D03*
X390209Y190976D03*
X390250Y330250D03*
Y340250D03*
Y350250D03*
Y360250D03*
Y370250D03*
Y380250D03*
Y390250D03*
Y400250D03*
Y410250D03*
Y420250D03*
Y430250D03*
Y440250D03*
Y450250D03*
Y460250D03*
Y470250D03*
Y480250D03*
X399732Y40226D03*
Y50226D03*
Y200226D03*
Y210476D03*
X399982Y60226D03*
X400209Y190976D03*
X400250Y330250D03*
Y340250D03*
Y350250D03*
Y360250D03*
Y370250D03*
Y380250D03*
Y390250D03*
Y400250D03*
Y410250D03*
Y420250D03*
Y430250D03*
Y440250D03*
Y450250D03*
Y460250D03*
Y470250D03*
Y480250D03*
X409732Y200226D03*
Y210476D03*
X410209Y190976D03*
X429232Y325476D03*
Y335476D03*
Y345476D03*
Y355476D03*
Y380476D03*
Y390476D03*
Y400476D03*
Y440476D03*
Y450476D03*
Y460476D03*
X439232Y290476D03*
Y300476D03*
Y310476D03*
Y325476D03*
Y335476D03*
Y345476D03*
Y355476D03*
Y380476D03*
Y390476D03*
Y400476D03*
Y440476D03*
Y450476D03*
Y460476D03*
X439982Y90226D03*
Y100226D03*
Y110226D03*
Y120226D03*
Y130226D03*
Y140226D03*
Y150226D03*
Y160226D03*
X449232Y290476D03*
Y300476D03*
Y310476D03*
Y380476D03*
Y390476D03*
Y400476D03*
Y440476D03*
Y450476D03*
Y460476D03*
X449732Y90226D03*
Y100226D03*
Y110226D03*
Y120226D03*
Y130226D03*
Y140226D03*
Y150226D03*
Y160226D03*
X459732Y90226D03*
Y100226D03*
Y110226D03*
Y120226D03*
Y130226D03*
Y140226D03*
Y150226D03*
Y160226D03*
X464232Y384226D03*
Y394226D03*
X474232Y384226D03*
Y394226D03*
Y454226D03*
Y464226D03*
X479232Y290476D03*
Y300476D03*
Y310476D03*
Y325476D03*
Y335476D03*
Y345476D03*
Y355476D03*
X484232Y384226D03*
Y394226D03*
X489232Y290476D03*
Y300476D03*
Y310476D03*
Y325476D03*
Y335476D03*
Y345476D03*
Y355476D03*
X494232Y384226D03*
Y394226D03*
D02*
D17*
X236732Y194226D03*
Y294226D03*
X246732Y194226D03*
Y294226D03*
X256732Y194226D03*
Y294226D03*
X286732Y194226D03*
X296732D03*
Y294226D03*
X306732Y194226D03*
X316732D03*
X329982Y30226D03*
X339982D03*
X340209Y220226D03*
X349982Y30226D03*
X350209Y220226D03*
X359982Y30226D03*
X360209Y220226D03*
X369982Y30226D03*
X370209Y220226D03*
X379982Y30226D03*
X380209Y220226D03*
X389982Y30226D03*
X390209Y220226D03*
X399982Y30226D03*
X400209Y220226D03*
X410209D03*
X429232Y369226D03*
Y471726D03*
X439232Y369226D03*
Y471726D03*
X449232Y369226D03*
Y471726D03*
X464232Y374226D03*
X474232D03*
Y474226D03*
X484232Y374226D03*
X494232D03*
D02*
D18*
X292750Y234360D03*
X297750D03*
X302750D03*
X307750D03*
X470250Y414587D03*
X475250D03*
X480250D03*
X485250D03*
D02*
D19*
X300250Y246860D03*
X477750Y427087D03*
D02*
D70*
X300250Y255915D03*
X477750Y436142D03*
D02*
D71*
X100010Y378476D03*
Y383476D03*
Y388476D03*
Y393476D03*
Y398476D03*
Y403476D03*
Y408476D03*
Y413476D03*
Y418476D03*
Y423476D03*
Y428476D03*
Y433476D03*
Y438476D03*
Y443476D03*
X143907Y378476D03*
Y383476D03*
Y388476D03*
Y393476D03*
Y398476D03*
Y403476D03*
Y408476D03*
Y413476D03*
Y418476D03*
Y423476D03*
Y428476D03*
Y433476D03*
Y438476D03*
Y443476D03*
D02*
D20*
X106453Y243616D03*
Y246175D03*
Y248734D03*
Y251293D03*
Y253852D03*
Y256411D03*
Y258970D03*
Y261530D03*
Y264089D03*
Y266648D03*
Y269207D03*
Y271766D03*
Y274325D03*
Y276884D03*
X134012Y243616D03*
Y246175D03*
Y248734D03*
Y251293D03*
Y253852D03*
Y256411D03*
Y258970D03*
Y261530D03*
Y264089D03*
Y266648D03*
Y269207D03*
Y271766D03*
Y274325D03*
Y276884D03*
D02*
D21*
X105469Y76104D03*
Y79254D03*
Y82404D03*
Y85553D03*
Y88703D03*
Y91852D03*
Y95002D03*
Y98152D03*
Y101301D03*
Y104451D03*
Y107600D03*
Y110750D03*
Y113900D03*
Y117049D03*
Y120199D03*
Y123348D03*
X134996Y76104D03*
Y79254D03*
Y82404D03*
Y85553D03*
Y88703D03*
Y91852D03*
Y95002D03*
Y98152D03*
Y101301D03*
Y104451D03*
Y107600D03*
Y110750D03*
Y113900D03*
Y117049D03*
Y120199D03*
Y123348D03*
D02*
D22*
X20250Y20250D03*
Y30250D03*
Y40250D03*
Y50250D03*
Y60250D03*
Y70250D03*
Y80250D03*
Y90250D03*
Y100250D03*
Y110250D03*
Y120250D03*
Y130250D03*
Y140250D03*
Y150250D03*
Y160250D03*
Y170250D03*
Y190250D03*
Y200250D03*
Y210250D03*
Y220250D03*
Y230250D03*
Y240250D03*
Y250250D03*
Y260250D03*
Y270250D03*
Y280250D03*
Y290250D03*
Y300250D03*
Y310250D03*
Y320250D03*
X30250Y340250D03*
Y350250D03*
Y360250D03*
Y370250D03*
Y380250D03*
Y390250D03*
Y400250D03*
Y410250D03*
Y420250D03*
Y430250D03*
Y440250D03*
Y450250D03*
Y460250D03*
Y470250D03*
X66732Y164226D03*
Y174226D03*
Y184226D03*
Y324226D03*
X69232Y10476D03*
Y20476D03*
Y30476D03*
Y40476D03*
X89232Y460476D03*
Y470476D03*
Y480476D03*
X149232Y10476D03*
Y20476D03*
Y30476D03*
Y40476D03*
X159232Y460476D03*
Y470476D03*
Y480476D03*
X166732Y164226D03*
Y174226D03*
Y184226D03*
Y314226D03*
Y324226D03*
Y334226D03*
Y344226D03*
X210250Y340250D03*
Y350250D03*
Y360250D03*
Y370250D03*
Y380250D03*
Y390250D03*
Y400250D03*
Y410250D03*
Y420250D03*
Y430250D03*
Y440250D03*
Y450250D03*
Y460250D03*
Y470250D03*
X220250Y20250D03*
Y30250D03*
Y40250D03*
Y50250D03*
Y60250D03*
Y70250D03*
Y80250D03*
Y90250D03*
Y100250D03*
Y110250D03*
Y120250D03*
Y130250D03*
Y140250D03*
Y150250D03*
Y160250D03*
Y170250D03*
Y190250D03*
Y200250D03*
Y210250D03*
Y220250D03*
Y230250D03*
Y240250D03*
Y250250D03*
Y260250D03*
Y270250D03*
Y280250D03*
Y290250D03*
Y300250D03*
Y310250D03*
Y320250D03*
X234232Y50476D03*
Y60476D03*
Y70476D03*
Y80476D03*
X239232Y10476D03*
Y20476D03*
Y30476D03*
X250250Y330250D03*
Y340250D03*
Y350250D03*
Y360250D03*
Y370250D03*
Y380250D03*
Y390250D03*
Y400250D03*
Y410250D03*
Y420250D03*
Y430250D03*
Y440250D03*
Y450250D03*
Y460250D03*
Y470250D03*
Y480250D03*
X269732Y95226D03*
Y105226D03*
Y115226D03*
Y125226D03*
Y135226D03*
Y145226D03*
Y155226D03*
Y165226D03*
X309232Y10476D03*
Y20476D03*
Y30476D03*
X314232Y50476D03*
Y60476D03*
Y70476D03*
Y80476D03*
X410250Y330250D03*
Y340250D03*
Y350250D03*
Y360250D03*
Y370250D03*
Y380250D03*
Y390250D03*
Y400250D03*
Y410250D03*
Y420250D03*
Y430250D03*
Y440250D03*
Y450250D03*
Y460250D03*
Y470250D03*
Y480250D03*
X419232Y325476D03*
Y335476D03*
Y345476D03*
Y355476D03*
X429232Y290476D03*
Y300476D03*
Y310476D03*
X469732Y90226D03*
Y100226D03*
Y110226D03*
Y120226D03*
Y130226D03*
Y140226D03*
Y150226D03*
Y160226D03*
X499232Y290476D03*
Y300476D03*
Y310476D03*
Y325476D03*
Y335476D03*
Y345476D03*
Y355476D03*
D02*
D23*
X319559Y372726D03*
Y377726D03*
Y382726D03*
Y387726D03*
Y392726D03*
Y397726D03*
Y402726D03*
Y407726D03*
Y412726D03*
Y417726D03*
Y422726D03*
Y427726D03*
Y432726D03*
Y437726D03*
Y442726D03*
Y447726D03*
X340906Y372726D03*
Y377726D03*
Y382726D03*
Y387726D03*
Y392726D03*
Y397726D03*
Y402726D03*
Y407726D03*
Y412726D03*
Y417726D03*
Y422726D03*
Y427726D03*
Y432726D03*
Y437726D03*
Y442726D03*
Y447726D03*
D02*
D24*
X239232Y110476D03*
Y130476D03*
D02*
D25*
X459732Y20226D03*
Y30226D03*
Y40226D03*
X469732Y20226D03*
Y30226D03*
Y40226D03*
D02*
D27*
X125098Y316476D03*
Y321476D03*
Y326476D03*
Y331476D03*
D02*
D28*
X112598Y323976D03*
D02*
D29*
X103543D03*
D02*
D72*
X358959Y108494D03*
Y141959D03*
X362108Y108494D03*
Y141959D03*
X365258Y108494D03*
Y141959D03*
X368407Y108494D03*
Y141959D03*
X371557Y108494D03*
Y141959D03*
X374707Y108494D03*
Y141959D03*
X377856Y108494D03*
Y141959D03*
X381006Y108494D03*
Y141959D03*
D02*
D73*
X353250Y114203D03*
Y117352D03*
Y120502D03*
Y123652D03*
Y126801D03*
Y129951D03*
Y133100D03*
Y136250D03*
X386715Y114203D03*
Y117352D03*
Y120502D03*
Y123652D03*
Y126801D03*
Y129951D03*
Y133100D03*
Y136250D03*
D02*
D117*
X239732Y90476D03*
Y150476D03*
X248732Y90476D03*
Y150476D03*
D02*
D118*
X371482Y249726D03*
Y258726D03*
X387482Y249726D03*
Y258726D03*
D02*
D119*
X112079Y170760D03*
Y174500D03*
Y178240D03*
X121921Y170760D03*
Y174500D03*
Y178240D03*
D02*
D120*
X100571Y21638D03*
Y24197D03*
Y26756D03*
Y29315D03*
X117894Y21638D03*
Y24197D03*
Y26756D03*
Y29315D03*
X265571Y61638D03*
Y64197D03*
Y66756D03*
Y69315D03*
X282894Y61638D03*
Y64197D03*
Y66756D03*
Y69315D03*
X450571Y336638D03*
Y339197D03*
Y341756D03*
Y344315D03*
X467894Y336638D03*
Y339197D03*
Y341756D03*
Y344315D03*
D02*
D121*
X120492Y467917D03*
Y470476D03*
Y473035D03*
X127972Y467917D03*
Y470476D03*
Y473035D03*
X270492Y17917D03*
Y20476D03*
Y23035D03*
X277972Y17917D03*
Y20476D03*
Y23035D03*
X460492Y297917D03*
Y300476D03*
Y303035D03*
X467972Y297917D03*
Y300476D03*
Y303035D03*
D02*
D122*
X242992Y239305D03*
Y249148D03*
X246732Y239305D03*
Y249148D03*
X250472Y239305D03*
Y249148D03*
X435492Y415555D03*
Y425398D03*
X439232Y415555D03*
Y425398D03*
X442972Y415555D03*
Y425398D03*
X0Y0D02*
M02*
