G04 DesignSpark PCB Gerber Version 9.0 Build 5138 *
%FSLAX35Y35*%
%MOIN*%
%ADD90C,0.00100*%
%ADD12C,0.00394*%
%ADD11C,0.00500*%
%ADD10C,0.00787*%
%ADD13C,0.01575*%
X0Y0D02*
D02*
D10*
X95482Y446232D02*
X104537D01*
X97815Y31579D02*
X103327D01*
X102811Y125907D02*
X108126D01*
X103106Y279148D02*
X109799D01*
X104705Y31382D02*
X113760D01*
Y19571*
X104705*
Y31382*
X105915Y446724D02*
X138002D01*
Y375228*
X105915*
Y446724*
X109504Y126498D02*
X130961D01*
Y72955*
X109504*
Y126498*
X109618Y180602D02*
X114539D01*
X111177Y280478D02*
X129287D01*
Y240022*
X111177*
Y280478*
X115917Y180209D02*
X118083D01*
Y168791*
X115917*
Y180209*
X118130Y475201D02*
X122854D01*
X128937Y316102D02*
Y316890*
G75*
G02Y316102J-394D01*
G01*
Y316890D02*
G75*
G03Y316102J-394D01*
G01*
X240630Y236844D02*
Y241766D01*
X241024Y243144D02*
Y245309D01*
X252441*
Y243144*
X241024*
X262815Y71579D02*
X268327D01*
X268130Y25201D02*
X272854D01*
X269705Y71382D02*
X278760D01*
Y59571*
X269705*
Y71382*
X292376Y230522D02*
X293163*
G75*
G02X292376I-394D01*
G01*
X293163D02*
G75*
G03X292376I-394D01*
G01*
X316551Y390384D02*
X322563D01*
X316551Y410384D02*
X322563D01*
X316551Y430384D02*
X322563D01*
X316551Y450384D02*
X322563D01*
X323941Y389880D02*
X336524D01*
Y370573*
X323941*
Y389880*
Y409880D02*
X336524D01*
Y390573*
X323941*
Y409880*
Y429880D02*
X336524D01*
Y410573*
X323941*
Y429880*
Y449880D02*
X336524D01*
Y430573*
X323941*
Y449880*
X357581Y137628D02*
X382384D01*
Y112825*
X357581*
Y137628*
X433130Y413094D02*
Y418016D01*
X433524Y419394D02*
Y421559D01*
X444941*
Y419394*
X433524*
X447815Y346579D02*
X453327D01*
X454705Y346382D02*
X463760D01*
Y334571*
X454705*
Y346382*
X458130Y305201D02*
X462854D01*
X469876Y410748D02*
X470663*
G75*
G02X469876I-394D01*
G01*
X470663D02*
G75*
G03X469876I-394D01*
G01*
D02*
D11*
X250Y250D02*
X510250D01*
Y500250*
X250*
Y250*
X100170Y36414D02*
X101420D01*
X100795D02*
Y40164D01*
X100170D02*
X101420D01*
X107357Y37039D02*
X107045Y36726D01*
X106420Y36414*
X105482*
X104857Y36726*
X104545Y37039*
X104232Y37664*
Y38914*
X104545Y39539*
X104857Y39852*
X105482Y40164*
X106420*
X107045Y39852*
X107357Y39539*
X111732Y36414D02*
X109232D01*
X111420Y38602*
X111732Y39226*
X111420Y39852*
X110795Y40164*
X109857*
X109232Y39852*
X115795Y36414D02*
Y40164D01*
X114232Y37664*
X116732*
X103521Y303976D02*
X102271D01*
X101646Y304289*
X101333Y304602*
X101021Y305226*
Y305852*
X101333Y306476*
X101646Y306789*
X102271Y307102*
X103521*
X104146Y306789*
X104459Y306476*
X104771Y305852*
Y305226*
X104459Y304602*
X104146Y304289*
X103521Y303976*
X103833Y306164D02*
X104771Y307102D01*
Y310539D02*
X101021D01*
X103521Y308976*
Y311476*
X111187Y100664D02*
X112437D01*
X111813D02*
Y104414D01*
X111187D02*
X112437D01*
X118375Y101289D02*
X118063Y100976D01*
X117437Y100664*
X116500*
X115875Y100976*
X115563Y101289*
X115250Y101914*
Y103164*
X115563Y103789*
X115875Y104102*
X116500Y104414*
X117437*
X118063Y104102*
X118375Y103789*
X120875Y100664D02*
X122125D01*
X121500D02*
Y104414D01*
X120875Y103789*
X125250Y101602D02*
X125563Y102226D01*
X126187Y102539*
X126813*
X127437Y102226*
X127750Y101602*
X127437Y100976*
X126813Y100664*
X126187*
X125563Y100976*
X125250Y101602*
Y102539*
X125563Y103476*
X126187Y104102*
X126813Y104414*
X111187Y261187D02*
X112437D01*
X111813D02*
Y264937D01*
X111187D02*
X112437D01*
X118375Y261813D02*
X118063Y261500D01*
X117437Y261187*
X116500*
X115875Y261500*
X115563Y261813*
X115250Y262437*
Y263687*
X115563Y264313*
X115875Y264625*
X116500Y264937*
X117437*
X118063Y264625*
X118375Y264313*
X120875Y261187D02*
X122125D01*
X121500D02*
Y264937D01*
X120875Y264313*
X126813Y261187D02*
Y264937D01*
X125250Y262437*
X127750*
X115170Y476414D02*
X116420D01*
X115795D02*
Y480164D01*
X115170D02*
X116420D01*
X122357Y477039D02*
X122045Y476726D01*
X121420Y476414*
X120482*
X119857Y476726*
X119545Y477039*
X119232Y477664*
Y478914*
X119545Y479539*
X119857Y479852*
X120482Y480164*
X121420*
X122045Y479852*
X122357Y479539*
X126732Y476414D02*
X124232D01*
X126420Y478602*
X126732Y479226*
X126420Y479852*
X125795Y480164*
X124857*
X124232Y479852*
X130170Y478289D02*
X130795D01*
X131420Y478602*
X131732Y479226*
X131420Y479852*
X130795Y480164*
X130170*
X129545Y479852*
X129232Y479226*
X129545Y478602*
X130170Y478289*
X129545Y477976*
X129232Y477352*
X129545Y476726*
X130170Y476414*
X130795*
X131420Y476726*
X131732Y477352*
X131420Y477976*
X130795Y478289*
X114250Y183187D02*
Y186937D01*
X116125*
X116750Y186625*
X117063Y186313*
X117375Y185687*
Y184437*
X117063Y183813*
X116750Y183500*
X116125Y183187*
X114250*
X121750D02*
X119250D01*
X121437Y185375*
X121750Y186000*
X121437Y186625*
X120813Y186937*
X119875*
X119250Y186625*
X122896Y411914D02*
X124146D01*
X123521D02*
Y415664D01*
X122896D02*
X124146D01*
X130084Y412539D02*
X129771Y412226D01*
X129146Y411914*
X128209*
X127584Y412226*
X127271Y412539*
X126959Y413164*
Y414414*
X127271Y415039*
X127584Y415352*
X128209Y415664*
X129146*
X129771Y415352*
X130084Y415039*
X132584Y411914D02*
X133834D01*
X133209D02*
Y415664D01*
X132584Y415039*
X137271Y412226D02*
X137896Y411914D01*
X138521*
X139146Y412226*
X139459Y412852*
X139146Y413476*
X138521Y413789*
X137896*
X138521D02*
X139146Y414102D01*
X139459Y414726*
X139146Y415352*
X138521Y415664*
X137896*
X137271Y415352*
X229232Y130476D02*
Y110476D01*
G75*
G03X249232I10000*
G01*
Y130476*
G75*
G03X229232I-10000*
G01*
X236420Y124494D02*
X240170Y121369D01*
Y124494D02*
X236420Y121369D01*
Y118869D02*
Y117619D01*
Y118244D02*
X240170D01*
X239545Y118869*
X241107Y155789D02*
X240795Y155476D01*
X240170Y155164*
X239232*
X238607Y155476*
X238295Y155789*
X237982Y156414*
Y157664*
X238295Y158289*
X238607Y158602*
X239232Y158914*
X240170*
X240795Y158602*
X241107Y158289*
X243607Y155164D02*
X244857D01*
X244232D02*
Y158914D01*
X243607Y158289*
X249545Y155164D02*
Y158914D01*
X247982Y156414*
X250482*
X238045Y241476D02*
X234295D01*
Y243352*
X234607Y243976*
X234920Y244289*
X235545Y244602*
X236795*
X237420Y244289*
X237732Y243976*
X238045Y243352*
Y241476*
Y248039D02*
X234295D01*
X236795Y246476*
Y248976*
X252232Y93976D02*
X236232D01*
Y86976*
X252232*
Y93976*
Y153976D02*
X236232D01*
Y146976*
X252232*
Y153976*
X257357Y87039D02*
X257045Y86726D01*
X256420Y86414*
X255482*
X254857Y86726*
X254545Y87039*
X254232Y87664*
Y88914*
X254545Y89539*
X254857Y89852*
X255482Y90164*
X256420*
X257045Y89852*
X257357Y89539*
X259857Y86414D02*
X261107D01*
X260482D02*
Y90164D01*
X259857Y89539*
X264232Y86726D02*
X264857Y86414D01*
X265795*
X266420Y86726*
X266732Y87352*
Y87664*
X266420Y88289*
X265795Y88602*
X264232*
Y90164*
X266732*
X265170Y26414D02*
X266420D01*
X265795D02*
Y30164D01*
X265170D02*
X266420D01*
X272357Y27039D02*
X272045Y26726D01*
X271420Y26414*
X270482*
X269857Y26726*
X269545Y27039*
X269232Y27664*
Y28914*
X269545Y29539*
X269857Y29852*
X270482Y30164*
X271420*
X272045Y29852*
X272357Y29539*
X276732Y26414D02*
X274232D01*
X276420Y28602*
X276732Y29226*
X276420Y29852*
X275795Y30164*
X274857*
X274232Y29852*
X279232Y26726D02*
X279857Y26414D01*
X280795*
X281420Y26726*
X281732Y27352*
Y27664*
X281420Y28289*
X280795Y28602*
X279232*
Y30164*
X281732*
X265170Y76414D02*
X266420D01*
X265795D02*
Y80164D01*
X265170D02*
X266420D01*
X272357Y77039D02*
X272045Y76726D01*
X271420Y76414*
X270482*
X269857Y76726*
X269545Y77039*
X269232Y77664*
Y78914*
X269545Y79539*
X269857Y79852*
X270482Y80164*
X271420*
X272045Y79852*
X272357Y79539*
X274545Y76726D02*
X275170Y76414D01*
X275795*
X276420Y76726*
X276732Y77352*
X276420Y77976*
X275795Y78289*
X275170*
X275795D02*
X276420Y78602D01*
X276732Y79226*
X276420Y79852*
X275795Y80164*
X275170*
X274545Y79852*
X279545Y76726D02*
X280170Y76414D01*
X280795*
X281420Y76726*
X281732Y77352*
Y79226*
X281420Y79852*
X280795Y80164*
X280170*
X279545Y79852*
X279232Y79226*
Y77352*
X279545Y76726*
X281420Y79852*
X280250Y255937D02*
Y257187D01*
X280563Y257813*
X280875Y258125*
X281500Y258437*
X282125*
X282750Y258125*
X283063Y257813*
X283375Y257187*
Y255937*
X283063Y255313*
X282750Y255000*
X282125Y254687*
X281500*
X280875Y255000*
X280563Y255313*
X280250Y255937*
X282437Y255625D02*
X283375Y254687D01*
X285250Y255000D02*
X285875Y254687D01*
X286813*
X287437Y255000*
X287750Y255625*
Y255937*
X287437Y256563*
X286813Y256875*
X285250*
Y258437*
X287750*
X329732Y312476D02*
X399732D01*
Y292476*
X329732*
Y312476*
X331170Y381164D02*
X332420D01*
X331795D02*
Y384914D01*
X331170D02*
X332420D01*
X338357Y381789D02*
X338045Y381476D01*
X337420Y381164*
X336482*
X335857Y381476*
X335545Y381789*
X335232Y382414*
Y383664*
X335545Y384289*
X335857Y384602*
X336482Y384914*
X337420*
X338045Y384602*
X338357Y384289*
X340857Y381164D02*
X342107D01*
X341482D02*
Y384914D01*
X340857Y384289*
X346170Y381164D02*
X346795Y381476D01*
X347420Y382102*
X347732Y383039*
Y383976*
X347420Y384602*
X346795Y384914*
X346170*
X345545Y384602*
X345232Y383976*
X345545Y383352*
X346170Y383039*
X346795*
X347420Y383352*
X347732Y383976*
X331170Y401164D02*
X332420D01*
X331795D02*
Y404914D01*
X331170D02*
X332420D01*
X338357Y401789D02*
X338045Y401476D01*
X337420Y401164*
X336482*
X335857Y401476*
X335545Y401789*
X335232Y402414*
Y403664*
X335545Y404289*
X335857Y404602*
X336482Y404914*
X337420*
X338045Y404602*
X338357Y404289*
X342732Y401164D02*
X340232D01*
X342420Y403352*
X342732Y403976*
X342420Y404602*
X341795Y404914*
X340857*
X340232Y404602*
X345545Y401476D02*
X346170Y401164D01*
X346795*
X347420Y401476*
X347732Y402102*
Y403976*
X347420Y404602*
X346795Y404914*
X346170*
X345545Y404602*
X345232Y403976*
Y402102*
X345545Y401476*
X347420Y404602*
X331170Y421164D02*
X332420D01*
X331795D02*
Y424914D01*
X331170D02*
X332420D01*
X338357Y421789D02*
X338045Y421476D01*
X337420Y421164*
X336482*
X335857Y421476*
X335545Y421789*
X335232Y422414*
Y423664*
X335545Y424289*
X335857Y424602*
X336482Y424914*
X337420*
X338045Y424602*
X338357Y424289*
X342732Y421164D02*
X340232D01*
X342420Y423352*
X342732Y423976*
X342420Y424602*
X341795Y424914*
X340857*
X340232Y424602*
X345857Y421164D02*
X347107D01*
X346482D02*
Y424914D01*
X345857Y424289*
X331170Y441164D02*
X332420D01*
X331795D02*
Y444914D01*
X331170D02*
X332420D01*
X338357Y441789D02*
X338045Y441476D01*
X337420Y441164*
X336482*
X335857Y441476*
X335545Y441789*
X335232Y442414*
Y443664*
X335545Y444289*
X335857Y444602*
X336482Y444914*
X337420*
X338045Y444602*
X338357Y444289*
X342732Y441164D02*
X340232D01*
X342420Y443352*
X342732Y443976*
X342420Y444602*
X341795Y444914*
X340857*
X340232Y444602*
X347732Y441164D02*
X345232D01*
X347420Y443352*
X347732Y443976*
X347420Y444602*
X346795Y444914*
X345857*
X345232Y444602*
X355482Y323914D02*
Y327664D01*
X357357*
X357982Y327352*
X358295Y327039*
X358607Y326414*
Y325164*
X358295Y324539*
X357982Y324226*
X357357Y323914*
X355482*
X361107D02*
X362357D01*
X361732D02*
Y327664D01*
X361107Y327039*
X365113Y124589D02*
X366363D01*
X365738D02*
Y128339D01*
X365113D02*
X366363D01*
X372300Y125214D02*
X371988Y124902D01*
X371363Y124589*
X370425*
X369800Y124902*
X369488Y125214*
X369175Y125839*
Y127089*
X369488Y127714*
X369800Y128027*
X370425Y128339*
X371363*
X371988Y128027*
X372300Y127714*
X376675Y124589D02*
X374175D01*
X376363Y126777*
X376675Y127402*
X376363Y128027*
X375738Y128339*
X374800*
X374175Y128027*
X366232Y247289D02*
X366545Y247914D01*
Y248539*
X366232Y249164*
X365607Y249476*
X363732*
X363107Y249164*
X362795Y248539*
Y247914*
X363107Y247289*
X363732Y246976*
X365607*
X366232Y247289*
X363107Y249164*
X366545Y251976D02*
Y255102D01*
Y257602D02*
Y258852D01*
Y258226D02*
X362795D01*
X363420Y257602*
X364045Y261976D02*
X365607D01*
X366232Y262289*
X366545Y262914*
Y263539*
X366232Y264164*
X365607Y264476*
X364045D02*
X366545D01*
Y266976D02*
X362795D01*
Y270102*
X364670Y269476D02*
Y266976D01*
X374982Y246226D02*
Y262226D01*
X367982*
Y246226*
X374982*
X382545Y247602D02*
Y248852D01*
Y248226D02*
X378795D01*
X379420Y247602*
X382232Y252289D02*
X382545Y252914D01*
Y253539*
X382232Y254164*
X381607Y254476*
X379732*
X379107Y254164*
X378795Y253539*
Y252914*
X379107Y252289*
X379732Y251976*
X381607*
X382232Y252289*
X379107Y254164*
X382545Y256976D02*
X378795D01*
X381295D02*
Y257914D01*
X380045Y259476*
X381295Y257914D02*
X382545Y259476D01*
X390982Y246226D02*
Y262226D01*
X383982*
Y246226*
X390982*
X399732Y452476D02*
X329732D01*
Y312476*
X399732*
Y452476*
X430545Y417726D02*
X426795D01*
Y419602*
X427107Y420226*
X427420Y420539*
X428045Y420852*
X429295*
X429920Y420539*
X430232Y420226*
X430545Y419602*
Y417726*
X429607Y422726D02*
X428982Y423039D01*
X428670Y423664*
Y424289*
X428982Y424914*
X429607Y425226*
X430232Y424914*
X430545Y424289*
Y423664*
X430232Y423039*
X429607Y422726*
X428670*
X427732Y423039*
X427107Y423664*
X426795Y424289*
X450170Y351414D02*
X451420D01*
X450795D02*
Y355164D01*
X450170D02*
X451420D01*
X457357Y352039D02*
X457045Y351726D01*
X456420Y351414*
X455482*
X454857Y351726*
X454545Y352039*
X454232Y352664*
Y353914*
X454545Y354539*
X454857Y354852*
X455482Y355164*
X456420*
X457045Y354852*
X457357Y354539*
X459545Y351726D02*
X460170Y351414D01*
X460795*
X461420Y351726*
X461732Y352352*
X461420Y352976*
X460795Y353289*
X460170*
X460795D02*
X461420Y353602D01*
X461732Y354226*
X461420Y354852*
X460795Y355164*
X460170*
X459545Y354852*
X466732Y351414D02*
X464232D01*
X466420Y353602*
X466732Y354226*
X466420Y354852*
X465795Y355164*
X464857*
X464232Y354852*
X455170Y306414D02*
X456420D01*
X455795D02*
Y310164D01*
X455170D02*
X456420D01*
X462357Y307039D02*
X462045Y306726D01*
X461420Y306414*
X460482*
X459857Y306726*
X459545Y307039*
X459232Y307664*
Y308914*
X459545Y309539*
X459857Y309852*
X460482Y310164*
X461420*
X462045Y309852*
X462357Y309539*
X464545Y306726D02*
X465170Y306414D01*
X465795*
X466420Y306726*
X466732Y307352*
X466420Y307976*
X465795Y308289*
X465170*
X465795D02*
X466420Y308602D01*
X466732Y309226*
X466420Y309852*
X465795Y310164*
X465170*
X464545Y309852*
X470795Y306414D02*
Y310164D01*
X469232Y307664*
X471732*
X457750Y436164D02*
Y437414D01*
X458063Y438039*
X458375Y438352*
X459000Y438664*
X459625*
X460250Y438352*
X460563Y438039*
X460875Y437414*
Y436164*
X460563Y435539*
X460250Y435226*
X459625Y434914*
X459000*
X458375Y435226*
X458063Y435539*
X457750Y436164*
X459937Y435852D02*
X460875Y434914D01*
X462750Y435852D02*
X463063Y436476D01*
X463687Y436789*
X464313*
X464937Y436476*
X465250Y435852*
X464937Y435226*
X464313Y434914*
X463687*
X463063Y435226*
X462750Y435852*
Y436789*
X463063Y437726*
X463687Y438352*
X464313Y438664*
X479732Y10226D02*
Y50226D01*
X449732*
Y10226*
X479732*
X487545Y11164D02*
Y12414D01*
Y11789D02*
X483795D01*
Y11164D02*
Y12414D01*
X486607Y15226D02*
X487232Y15539D01*
X487545Y16164*
Y17414*
X487232Y18039*
X486607Y18352*
X485982Y18039*
X485670Y17414*
Y16164*
X485357Y15539*
X484732Y15226*
X484107Y15539*
X483795Y16164*
Y17414*
X484107Y18039*
X484732Y18352*
X487545Y20226D02*
X483795D01*
Y22414*
X484107Y23039*
X484732Y23352*
X485357Y23039*
X485670Y22414*
Y20226*
X494732Y25226D02*
Y35226D01*
X479732*
Y25226*
X494732*
D02*
D12*
X107677Y314331D02*
X121260D01*
Y333622*
X107677*
X290604Y251781D02*
Y238199D01*
X309896*
Y251781*
X451541Y10476D02*
X454494Y11707D01*
X451541Y12937*
X454002Y16874D02*
X454248Y16628D01*
X454494Y16136*
Y15398*
X454248Y14906*
X454002Y14659*
X453510Y14413*
X452526*
X452033Y14659*
X451787Y14906*
X451541Y15398*
Y16136*
X451787Y16628*
X452033Y16874*
X454002Y20811D02*
X454248Y20565D01*
X454494Y20073*
Y19335*
X454248Y18843*
X454002Y18596*
X453510Y18350*
X452526*
X452033Y18596*
X451787Y18843*
X451541Y19335*
Y20073*
X451787Y20565*
X452033Y20811*
X453264Y39699D02*
Y40437D01*
X453510*
X454002Y40191*
X454248Y39945*
X454494Y39453*
Y38961*
X454248Y38469*
X454002Y38222*
X453510Y37976*
X452526*
X452033Y38222*
X451787Y38469*
X451541Y38961*
Y39453*
X451787Y39945*
X452033Y40191*
X452526Y40437*
X454494Y41913D02*
X451541D01*
X454494Y44374*
X451541*
X454494Y45850D02*
X451541D01*
Y47327*
X451787Y47819*
X452033Y48065*
X452526Y48311*
X453510*
X454002Y48065*
X454248Y47819*
X454494Y47327*
Y45850*
X460744Y14969D02*
Y15953D01*
Y15461D02*
X457791D01*
X458283Y14969*
X468104Y432008D02*
Y418425D01*
X487396*
Y432008*
D02*
D13*
X352659Y140974D02*
G75*
G02X351085I-787D01*
G01*
X352659D02*
G75*
G02X351085I-787D01*
G01*
G75*
G02X352659I787*
G01*
D02*
D90*
X336482Y306695D02*
Y308570D01*
X337420*
X337732Y308414*
X337889Y308257*
X338045Y307945*
Y307320*
X337889Y307007*
X337732Y306852*
X337420Y306695*
X336482*
X339763D02*
Y308570D01*
X338982D02*
X340545D01*
X341482Y306695D02*
Y308570D01*
X342576*
X342889Y308414*
X343045Y308102*
X342889Y307789*
X342576Y307633*
X341482*
X342576D02*
X343045Y306695D01*
X347732Y306945D02*
Y308820D01*
X348826*
X349139Y308664*
X349295Y308352*
X349139Y308039*
X348826Y307883*
X347732*
X348826D02*
X349295Y306945D01*
X350232D02*
X351795Y308820D01*
X350232D02*
X351795Y306945D01*
X358263Y307195D02*
Y309070D01*
X357482D02*
X359045D01*
X359982Y307195D02*
X361545Y309070D01*
X359982D02*
X361545Y307195D01*
X366232Y309070D02*
X367013Y307195D01*
X367795Y309070*
X370295Y307507D02*
X370139Y307352D01*
X369826Y307195*
X369357*
X369045Y307352*
X368889Y307507*
X368732Y307820*
Y308445*
X368889Y308757*
X369045Y308914*
X369357Y309070*
X369826*
X370139Y308914*
X370295Y308757*
X372795Y307507D02*
X372639Y307352D01*
X372326Y307195*
X371857*
X371545Y307352*
X371389Y307507*
X371232Y307820*
Y308445*
X371389Y308757*
X371545Y308914*
X371857Y309070*
X372326*
X372639Y308914*
X372795Y308757*
X378045Y307007D02*
X377889Y306852D01*
X377576Y306695*
X377107*
X376795Y306852*
X376639Y307007*
X376482Y307320*
Y307945*
X376639Y308257*
X376795Y308414*
X377107Y308570*
X377576*
X377889Y308414*
X378045Y308257*
X379763Y306695D02*
Y308570D01*
X378982D02*
X380545D01*
X381482Y307164D02*
X381639Y306852D01*
X381951Y306695*
X382576*
X382889Y306852*
X383045Y307164*
X382889Y307476*
X382576Y307633*
X381951*
X381639Y307789*
X381482Y308102*
X381639Y308414*
X381951Y308570*
X382576*
X382889Y308414*
X383045Y308102*
X388076Y307226D02*
X388545D01*
Y307070*
X388389Y306757*
X388232Y306602*
X387920Y306445*
X387607*
X387295Y306602*
X387139Y306757*
X386982Y307070*
Y307695*
X387139Y308007*
X387295Y308164*
X387607Y308320*
X387920*
X388232Y308164*
X388389Y308007*
X388545Y307695*
X389482Y306445D02*
Y308320D01*
X391045Y306445*
Y308320*
X391982Y306445D02*
Y308320D01*
X392920*
X393232Y308164*
X393389Y308007*
X393545Y307695*
Y307070*
X393389Y306757*
X393232Y306602*
X392920Y306445*
X391982*
X389732Y151789D02*
X390045Y151945D01*
X390513*
X390826Y151789*
X390982Y151476*
Y151007*
X390826Y150852*
X390513Y150695*
X390201*
X389889Y150852*
X389732Y151007*
Y151164*
X389889Y151320*
X390201Y151476*
X390513*
X390826Y151320*
X390982Y151164*
Y151007D02*
Y150695D01*
X392493Y151945D02*
X393222D01*
X392857Y152257D02*
Y150852D01*
X393013Y150695*
X393170*
X393326Y150852*
X394732Y150695D02*
Y151945D01*
Y151789D02*
X394889Y151945D01*
X395201*
X395357Y151789*
Y151320*
Y151789D02*
X395513Y151945D01*
X395826*
X395982Y151789*
Y150695*
X398482Y150852D02*
X398326Y150695D01*
X398013*
X397701*
X397389Y150852*
X397232Y151164*
Y151633*
X397389Y151789*
X397701Y151945*
X398013*
X398326Y151789*
X398482Y151633*
Y151476*
X398326Y151320*
X398013Y151164*
X397701*
X397389Y151320*
X397232Y151476*
X400982D02*
X400826Y151789D01*
X400513Y151945*
X400201*
X399889Y151789*
X399732Y151476*
Y151320*
X399889Y151007*
X400201Y150852*
X400513*
X400826Y151007*
X400982Y151320*
Y151945D02*
Y150695D01*
X400826Y150383*
X400513Y150226*
X400045*
X399732Y150383*
X402232Y151789D02*
X402545Y151945D01*
X403013*
X403326Y151789*
X403482Y151476*
Y151007*
X403326Y150852*
X403013Y150695*
X402701*
X402389Y150852*
X402232Y151007*
Y151164*
X402389Y151320*
X402701Y151476*
X403013*
X403326Y151320*
X403482Y151164*
Y151007D02*
Y150695D01*
X404889Y150852D02*
X405201Y150695D01*
X405513*
X405826Y150852*
X405982Y151164*
X405826Y151476*
X405513Y151633*
X405201*
X405513D02*
X405826Y151789D01*
X405982Y152102*
X405826Y152414*
X405513Y152570*
X405201*
X404889Y152414*
X408482Y150695D02*
X407232D01*
X408326Y151789*
X408482Y152102*
X408326Y152414*
X408013Y152570*
X407545*
X407232Y152414*
X410201Y151633D02*
X410513D01*
X410826Y151789*
X410982Y152102*
X410826Y152414*
X410513Y152570*
X410201*
X409889Y152414*
X409732Y152102*
X409889Y151789*
X410201Y151633*
X409889Y151476*
X409732Y151164*
X409889Y150852*
X410201Y150695*
X410513*
X410826Y150852*
X410982Y151164*
X410826Y151476*
X410513Y151633*
X412232Y151945D02*
Y150226D01*
Y151164D02*
X412389Y150852D01*
X412701Y150695*
X413013*
X413326Y150852*
X413482Y151164*
Y151476*
X413326Y151789*
X413013Y151945*
X412701*
X412389Y151789*
X412232Y151476*
Y151164*
X440170Y34476D02*
X440013Y34789D01*
Y35257*
X440170Y35570*
X440482Y35726*
X440951*
X441107Y35570*
X441263Y35257*
Y34945*
X441107Y34633*
X440951Y34476*
X440795*
X440639Y34633*
X440482Y34945*
Y35257*
X440639Y35570*
X440795Y35726*
X440951D02*
X441263D01*
X440013Y37237D02*
Y37966D01*
X439701Y37602D02*
X441107D01*
X441263Y37757*
Y37914*
X441107Y38070*
X441263Y39476D02*
X440013D01*
X440170D02*
X440013Y39633D01*
Y39945*
X440170Y40102*
X440639*
X440170D02*
X440013Y40257D01*
Y40570*
X440170Y40726*
X441263*
X441107Y43226D02*
X441263Y43070D01*
Y42757*
Y42445*
X441107Y42133*
X440795Y41976*
X440326*
X440170Y42133*
X440013Y42445*
Y42757*
X440170Y43070*
X440326Y43226*
X440482*
X440639Y43070*
X440795Y42757*
Y42445*
X440639Y42133*
X440482Y41976*
Y45726D02*
X440170Y45570D01*
X440013Y45257*
Y44945*
X440170Y44633*
X440482Y44476*
X440639*
X440951Y44633*
X441107Y44945*
Y45257*
X440951Y45570*
X440639Y45726*
X440013D02*
X441263D01*
X441576Y45570*
X441732Y45257*
Y44789*
X441576Y44476*
X440170Y46976D02*
X440013Y47289D01*
Y47757*
X440170Y48070*
X440482Y48226*
X440951*
X441107Y48070*
X441263Y47757*
Y47445*
X441107Y47133*
X440951Y46976*
X440795*
X440639Y47133*
X440482Y47445*
Y47757*
X440639Y48070*
X440795Y48226*
X440951D02*
X441263D01*
X441107Y49633D02*
X441263Y49945D01*
Y50257*
X441107Y50570*
X440795Y50726*
X440482Y50570*
X440326Y50257*
Y49945*
Y50257D02*
X440170Y50570D01*
X439857Y50726*
X439545Y50570*
X439389Y50257*
Y49945*
X439545Y49633*
X441263Y53226D02*
Y51976D01*
X440170Y53070*
X439857Y53226*
X439545Y53070*
X439389Y52757*
Y52289*
X439545Y51976*
X440326Y54945D02*
Y55257D01*
X440170Y55570*
X439857Y55726*
X439545Y55570*
X439389Y55257*
Y54945*
X439545Y54633*
X439857Y54476*
X440170Y54633*
X440326Y54945*
X440482Y54633*
X440795Y54476*
X441107Y54633*
X441263Y54945*
Y55257*
X441107Y55570*
X440795Y55726*
X440482Y55570*
X440326Y55257*
X440013Y56976D02*
X441732D01*
X440795D02*
X441107Y57133D01*
X441263Y57445*
Y57757*
X441107Y58070*
X440795Y58226*
X440482*
X440170Y58070*
X440013Y57757*
Y57445*
X440170Y57133*
X440482Y56976*
X440795*
X0Y0D02*
M02*
