G04 DesignSpark PCB Gerber Version 9.0 Build 5138 *
%FSLAX35Y35*%
%MOIN*%
%ADD116R,0.01969X0.04921*%
%ADD96R,0.02362X0.05906*%
%ADD109R,0.02756X0.04528*%
%ADD98R,0.03937X0.07874*%
%ADD102R,0.05500X0.06000*%
%ADD106R,0.05906X0.18504*%
%ADD105R,0.12205X0.16535*%
%ADD11C,0.00500*%
%ADD93C,0.01000*%
%ADD91C,0.01500*%
%ADD92C,0.04800*%
%ADD101C,0.06000*%
%ADD94C,0.06417*%
%ADD115R,0.04724X0.01575*%
%ADD114R,0.05512X0.01772*%
%ADD107R,0.06693X0.01772*%
%ADD113R,0.04921X0.01969*%
%ADD108R,0.05315X0.02362*%
%ADD95R,0.05906X0.02362*%
%ADD112R,0.06016X0.02559*%
%ADD104R,0.04528X0.02756*%
%ADD103R,0.09055X0.02756*%
%ADD97R,0.07874X0.03937*%
%ADD99R,0.06000X0.05500*%
%ADD111R,0.18504X0.05906*%
%ADD110R,0.16535X0.12205*%
%ADD100C,0.08661*%
X0Y0D02*
D02*
D11*
X250Y250D02*
X510250D01*
Y500250*
X250*
Y250*
D02*
D91*
X20250Y20250D02*
X40250D01*
X20250Y30250D02*
X40250D01*
X20250Y40250D02*
X40250D01*
X20250Y50250D02*
X40250D01*
X20250Y60250D02*
X40250D01*
X20250Y70250D02*
X40250D01*
X20250Y80250D02*
X40250D01*
X20250Y90250D02*
X40250D01*
X20250Y100250D02*
X40250D01*
X20250Y110250D02*
X40250D01*
X20250Y120250D02*
X40250D01*
X20250Y130250D02*
X40250D01*
X20250Y140250D02*
X40250D01*
X20250Y150250D02*
X40250D01*
X20250Y160250D02*
X40250D01*
X20250Y170250D02*
X40250D01*
X20250Y190250D02*
X40250D01*
X20250Y200250D02*
X40250D01*
X20250Y210250D02*
X40250D01*
X20250Y220250D02*
X40250D01*
X20250Y230250D02*
X40250D01*
X20250Y240250D02*
X40250D01*
X20250Y250250D02*
X40250D01*
X20250Y260250D02*
X40250D01*
X20250Y270250D02*
X40250D01*
X20250Y280250D02*
X40250D01*
X20250Y290250D02*
X40250D01*
X20250Y300250D02*
X40250D01*
X20250Y310250D02*
X40250D01*
X20250Y320250D02*
X40250D01*
X30250Y190250D02*
X40250D01*
X30250Y200250D02*
X40250D01*
X30250Y210250D02*
X40250D01*
X30250Y220250D02*
X40250D01*
X30250Y230250D02*
X40250D01*
X30250Y240250D02*
X40250D01*
X30250Y250250D02*
X40250D01*
X30250Y260250D02*
X40250D01*
X30250Y270250D02*
X40250D01*
X30250Y340250D02*
X50250D01*
X30250Y350250D02*
X50250D01*
X30250Y360250D02*
X50250D01*
X30250Y370250D02*
X50250D01*
X30250Y380250D02*
X50250D01*
X30250Y390250D02*
X50250D01*
X30250Y400250D02*
X50250D01*
X30250Y410250D02*
X50250D01*
X30250Y420250D02*
X50250D01*
X30250Y430250D02*
X50250D01*
X30250Y440250D02*
X50250D01*
X30250Y450250D02*
X50250D01*
X30250Y460250D02*
X50250D01*
X30250Y470250D02*
X50250D01*
X40250Y280250D02*
X30250D01*
X40250Y290250D02*
X30250D01*
X40250Y300250D02*
X30250D01*
X40250Y310250D02*
X30250D01*
X40250Y320250D02*
X30250D01*
X40250Y340250D02*
X50250D01*
X40250Y350250D02*
X50250D01*
X40250Y360250D02*
X50250D01*
X40250Y370250D02*
X50250D01*
X40250Y380250D02*
X50250D01*
X40250Y390250D02*
X50250D01*
X40250Y400250D02*
X50250D01*
X40250Y410250D02*
X50250D01*
X40250Y420250D02*
X50250D01*
X40250Y430250D02*
X50250D01*
X40250Y440250D02*
X50250D01*
X40250Y450250D02*
X50250D01*
X40976Y470976D02*
X40250Y470250D01*
X50250Y460250D02*
X40250D01*
X50250Y470250D02*
X40250D01*
X66732Y164226D02*
X86732D01*
X66732Y174226D02*
X86732D01*
X66732Y184226D02*
X86732D01*
X66732Y324226D02*
X86732D01*
X69232Y10476D02*
X89232D01*
X69232Y20476D02*
X89232D01*
X69232Y30476D02*
X89232D01*
X69232Y40476D02*
X89232D01*
X76732Y164226D02*
X96732D01*
X76732Y174226D02*
X96732D01*
X76732Y184226D02*
X96732D01*
X86732Y324226D02*
X76732D01*
X89232Y460476D02*
X109232D01*
X89232Y470476D02*
X109232D01*
X89232Y480476D02*
X109232D01*
X100010Y378476D02*
X88476D01*
X50250Y340250*
X100010Y383476D02*
X83476D01*
X50250Y350250*
X100010Y388476D02*
X78476D01*
X50250Y360250*
X100010Y393476D02*
X73476D01*
X50250Y370250*
X100010Y398476D02*
X68476D01*
X50250Y380250*
X100010Y403476D02*
X63476D01*
X50250Y390250*
X100010Y408476D02*
X58476D01*
X50250Y400250*
X100010Y413476D02*
X53476D01*
X50250Y410250*
X100010Y418476D02*
X52024D01*
X50250Y420250*
X100010Y423476D02*
X57024D01*
X50250Y430250*
X100010Y428476D02*
X62024D01*
X50250Y440250*
X100010Y433476D02*
X67024D01*
X50250Y450250*
X100010Y438476D02*
X72024D01*
X50250Y460250*
X100010Y443476D02*
X77024D01*
X50250Y470250*
X100571Y21638D02*
X100394D01*
X89232Y10476*
X100571Y24197D02*
X92953D01*
X89232Y20476*
X100571Y26756D02*
X92953D01*
X89232Y30476*
X100571Y29315D02*
X100394D01*
X89232Y40476*
X103543Y323976D02*
X76982D01*
X76732Y324226*
X105469Y76104D02*
X96104D01*
X40250Y20250*
X105469Y79254D02*
X89254D01*
X40250Y30250*
X105469Y82404D02*
X82404D01*
X40250Y40250*
X105469Y85553D02*
X75553D01*
X40250Y50250*
X105469Y88703D02*
X68703D01*
X40250Y60250*
X105469Y91852D02*
X61852D01*
X40250Y70250*
X105469Y95002D02*
X55002D01*
X40250Y80250*
X105469Y98152D02*
X48152D01*
X40250Y90250*
X105469Y101301D02*
X41301D01*
X40250Y100250*
X105469Y104451D02*
X46049D01*
X40250Y110250*
X105469Y107600D02*
X52900D01*
X40250Y120250*
X105469Y110750D02*
X59750D01*
X40250Y130250*
X105469Y113900D02*
X66600D01*
X40250Y140250*
X105469Y117049D02*
X73451D01*
X40250Y150250*
X105469Y120199D02*
X80301D01*
X40250Y160250*
X105469Y123348D02*
X87152D01*
X40250Y170250*
X106453Y243616D02*
X93616D01*
X40250Y190250*
X106453Y246175D02*
X86175D01*
X40250Y200250*
X106453Y248734D02*
X78734D01*
X40250Y210250*
X106453Y251293D02*
X71293D01*
X40250Y220250*
X106453Y253852D02*
X63852D01*
X40250Y230250*
X106453Y256411D02*
X56411D01*
X40250Y240250*
X106453Y258970D02*
X48970D01*
X40250Y250250*
X106453Y261530D02*
X41530D01*
X40250Y260250*
X106453Y264089D02*
X46411D01*
X40250Y270250*
X106453Y266648D02*
X53852D01*
X40250Y280250*
X106453Y269207D02*
X61293D01*
X40250Y290250*
X106453Y271766D02*
X68734D01*
X40250Y300250*
X106453Y274325D02*
X76175D01*
X40250Y310250*
X106453Y276884D02*
X83616D01*
X40250Y320250*
X112079Y170760D02*
X103266D01*
X96732Y164226*
X112079Y174500D02*
X97006D01*
X96732Y174226*
X112079Y178240D02*
X102719D01*
X96732Y184226*
X117894Y21638D02*
X118071D01*
X129232Y10476*
X117894Y24197D02*
X125512D01*
X129232Y20476*
X117894Y26756D02*
X125512D01*
X129232Y30476*
X117894Y29315D02*
X118071D01*
X129232Y40476*
X120492Y467917D02*
X116673D01*
X109232Y460476*
X120492Y470476D02*
X109232D01*
X120492Y473035D02*
X116673D01*
X109232Y480476*
X121921Y170760D02*
X130199D01*
X136732Y164226*
X121921Y174500D02*
X136459D01*
X136732Y174226*
X121921Y178240D02*
X130746D01*
X136732Y184226*
X125098Y316476D02*
X144482D01*
X146732Y314226*
X125098Y321476D02*
X143982D01*
X146732Y324226*
X125098Y326476D02*
X138982D01*
X146732Y334226*
X125098Y331476D02*
X133982D01*
X146732Y344226*
X127972Y467917D02*
X131791D01*
X139232Y460476*
X127972Y470476D02*
X139232D01*
X127972Y473035D02*
X131791D01*
X139232Y480476*
X134012Y243616D02*
X146884D01*
X200250Y190250*
X134012Y246175D02*
X154325D01*
X200250Y200250*
X134012Y248734D02*
X161766D01*
X200250Y210250*
X134012Y251293D02*
X169207D01*
X200250Y220250*
X134012Y253852D02*
X176648D01*
X200250Y230250*
X134012Y256411D02*
X184089D01*
X200250Y240250*
X134012Y258970D02*
X191530D01*
X200250Y250250*
X134012Y261530D02*
X198970D01*
X200250Y260250*
X134012Y264089D02*
X194089D01*
X200250Y270250*
X134012Y266648D02*
X186648D01*
X200250Y280250*
X134012Y269207D02*
X179207D01*
X200250Y290250*
X134012Y271766D02*
X171766D01*
X200250Y300250*
X134012Y274325D02*
X164325D01*
X200250Y310250*
X134012Y276884D02*
X156884D01*
X200250Y320250*
X134996Y76104D02*
X144396D01*
X200250Y20250*
X134996Y79254D02*
X151246D01*
X200250Y30250*
X134996Y82404D02*
X158096D01*
X200250Y40250*
X134996Y85553D02*
X164947D01*
X200250Y50250*
X134996Y88703D02*
X171797D01*
X200250Y60250*
X134996Y91852D02*
X178648D01*
X200250Y70250*
X134996Y95002D02*
X185498D01*
X200250Y80250*
X134996Y98152D02*
X192348D01*
X200250Y90250*
X134996Y101301D02*
X199199D01*
X200250Y100250*
X134996Y104451D02*
X194451D01*
X200250Y110250*
X134996Y107600D02*
X187600D01*
X200250Y120250*
X134996Y110750D02*
X180750D01*
X200250Y130250*
X134996Y113900D02*
X173900D01*
X200250Y140250*
X134996Y117049D02*
X167049D01*
X200250Y150250*
X134996Y120199D02*
X160199D01*
X200250Y160250*
X134996Y123348D02*
X153348D01*
X200250Y170250*
X136732Y164226D02*
X156732D01*
X136732Y174226D02*
X156732D01*
X136732Y184226D02*
X156732D01*
X143907Y378476D02*
X152024D01*
X190250Y340250*
X143907Y383476D02*
X157024D01*
X190250Y350250*
X143907Y388476D02*
X162024D01*
X190250Y360250*
X143907Y393476D02*
X167024D01*
X190250Y370250*
X143907Y398476D02*
X172024D01*
X190250Y380250*
X143907Y403476D02*
X177024D01*
X190250Y390250*
X143907Y408476D02*
X182024D01*
X190250Y400250*
X143907Y413476D02*
X187024D01*
X190250Y410250*
X143907Y418476D02*
X188476D01*
X190250Y420250*
X143907Y423476D02*
X183476D01*
X190250Y430250*
X143907Y428476D02*
X178476D01*
X190250Y440250*
X143907Y433476D02*
X173476D01*
X190250Y450250*
X143907Y438476D02*
X168476D01*
X190250Y460250*
X143907Y443476D02*
X163476D01*
X190250Y470250*
X146732Y314226D02*
X156732D01*
X146732Y324226D02*
X156732D01*
X146732Y334226D02*
X156732D01*
X146732Y344226D02*
X156732D01*
X149232Y10476D02*
X129232D01*
X149232Y20476D02*
X129232D01*
X149232Y30476D02*
X129232D01*
X149232Y40476D02*
X129232D01*
X159232Y460476D02*
X139232D01*
X159232Y470476D02*
X139232D01*
X159232Y480476D02*
X139232D01*
X166732Y164226D02*
X146732D01*
X166732Y174226D02*
X146732D01*
X166732Y184226D02*
X146732D01*
X166732Y314226D02*
X146732D01*
X166732Y324226D02*
X146732D01*
X166732Y334226D02*
X146732D01*
X166732Y344226D02*
X146732D01*
X190250Y340250D02*
X200250D01*
X190250Y350250D02*
X200250D01*
X190250Y360250D02*
X200250D01*
X190250Y370250D02*
X200250D01*
X190250Y380250D02*
X200250D01*
X190250Y390250D02*
X200250D01*
X190250Y400250D02*
X200250D01*
X190250Y410250D02*
X200250D01*
X190250Y420250D02*
X200250D01*
X190250Y430250D02*
X200250D01*
X190250Y440250D02*
X200250D01*
X190250Y450250D02*
X200250D01*
X190250Y460250D02*
X200250D01*
X190250Y470250D02*
X200250D01*
Y190250D02*
X210250D01*
X200250Y200250D02*
X210250D01*
X200250Y210250D02*
X210250D01*
X200250Y220250D02*
X210250D01*
X200250Y230250D02*
X210250D01*
X200250Y240250D02*
X210250D01*
X200250Y250250D02*
X210250D01*
X200250Y260250D02*
X210250D01*
X200250Y270250D02*
X210250D01*
X200250Y280250D02*
X210250D01*
X200250Y290250D02*
X210250D01*
X200250Y300250D02*
X210250D01*
X200250Y310250D02*
X210250D01*
X200250Y320250D02*
X210250D01*
Y340250D02*
X190250D01*
X210250Y350250D02*
X190250D01*
X210250Y360250D02*
X190250D01*
X210250Y370250D02*
X190250D01*
X210250Y380250D02*
X190250D01*
X210250Y390250D02*
X190250D01*
X210250Y400250D02*
X190250D01*
X210250Y410250D02*
X190250D01*
X210250Y420250D02*
X190250D01*
X210250Y430250D02*
X190250D01*
X210250Y440250D02*
X190250D01*
X210250Y450250D02*
X190250D01*
X210250Y460250D02*
X190250D01*
X210250Y470250D02*
X190250D01*
X220250Y20250D02*
X200250D01*
X220250Y30250D02*
X200250D01*
X220250Y40250D02*
X200250D01*
X220250Y50250D02*
X200250D01*
X220250Y60250D02*
X200250D01*
X220250Y70250D02*
X200250D01*
X220250Y80250D02*
X200250D01*
X220250Y90250D02*
X200250D01*
X220250Y100250D02*
X200250D01*
X220250Y110250D02*
X200250D01*
X220250Y120250D02*
X200250D01*
X220250Y130250D02*
X200250D01*
X220250Y140250D02*
X200250D01*
X220250Y150250D02*
X200250D01*
X220250Y160250D02*
X200250D01*
X220250Y170250D02*
X200250D01*
X220250Y190250D02*
X200250D01*
X220250Y200250D02*
X200250D01*
X220250Y210250D02*
X200250D01*
X220250Y220250D02*
X200250D01*
X220250Y230250D02*
X200250D01*
X220250Y240250D02*
X200250D01*
X220250Y250250D02*
X200250D01*
X220250Y260250D02*
X200250D01*
X220250Y270250D02*
X200250D01*
X220250Y280250D02*
X200250D01*
X220250Y290250D02*
X200250D01*
X220250Y300250D02*
X200250D01*
X220250Y310250D02*
X200250D01*
X220250Y320250D02*
X200250D01*
X234232Y50476D02*
X254232D01*
X234232Y60476D02*
X254232D01*
X234232Y70476D02*
X254232D01*
X234232Y80476D02*
X254232D01*
X236732Y194226D02*
Y214226D01*
Y204226D02*
Y224226D01*
Y284226D02*
Y264226D01*
Y294226D02*
Y274226D01*
X239232Y10476D02*
X259232D01*
X239232Y20476D02*
X259232D01*
X239232Y30476D02*
X259232D01*
X242992Y239305D02*
Y230486D01*
X236732Y224226*
X242992Y249148D02*
Y257967D01*
X236732Y264226*
X246732Y194226D02*
Y214226D01*
Y224226D02*
Y204226D01*
Y239305D02*
Y224226D01*
Y249148D02*
Y264226D01*
Y284226*
Y294226D02*
Y274226D01*
X250250Y330250D02*
X270250D01*
X250250Y340250D02*
X270250D01*
X250250Y350250D02*
X270250D01*
X250250Y360250D02*
X270250D01*
X250250Y370250D02*
X270250D01*
X250250Y380250D02*
X270250D01*
X250250Y390250D02*
X270250D01*
X250250Y400250D02*
X270250D01*
X250250Y410250D02*
X270250D01*
X250250Y420250D02*
X270250D01*
X250250Y430250D02*
X270250D01*
X250250Y440250D02*
X270250D01*
X250250Y450250D02*
X270250D01*
X250250Y460250D02*
X270250D01*
X250250Y470250D02*
X270250D01*
X250250Y480250D02*
X270250D01*
X250472Y239305D02*
Y230486D01*
X256732Y224226*
X250472Y249148D02*
Y257967D01*
X256732Y264226*
Y194226D02*
Y214226D01*
Y224226D02*
Y204226D01*
Y284226D02*
Y264226D01*
Y294226D02*
Y274226D01*
X265571Y61638D02*
X265394D01*
X254232Y50476*
X265571Y64197D02*
X257953D01*
X254232Y60476*
X265571Y66756D02*
X257953D01*
X254232Y70476*
X265571Y69315D02*
X265394D01*
X254232Y80476*
X269732Y95226D02*
X254482D01*
X239232Y110476*
X269732Y105226D02*
X264482D01*
X239232Y130476*
X270492Y17917D02*
X266673D01*
X259232Y10476*
X270492Y20476D02*
X259232D01*
X270492Y23035D02*
X266673D01*
X259232Y30476*
X277972Y17917D02*
X281791D01*
X289232Y10476*
X277972Y20476D02*
X289232D01*
X277972Y23035D02*
X281791D01*
X289232Y30476*
X282894Y61638D02*
X283071D01*
X294232Y50476*
X282894Y64197D02*
X290512D01*
X294232Y60476*
X282894Y66756D02*
X290512D01*
X294232Y70476*
X282894Y69315D02*
X283071D01*
X294232Y80476*
X286732Y194226D02*
Y214226D01*
X292750Y234360D02*
Y220244D01*
X286732Y214226*
X296732Y194226D02*
Y214226D01*
Y294226D02*
Y274226D01*
X297750Y234360D02*
Y215244D01*
X296732Y214226*
X299982Y95226D02*
X269732D01*
X299982Y105226D02*
X269732D01*
X299982Y115226D02*
X269732D01*
X299982Y125226D02*
X269732D01*
X299982Y135226D02*
X269732D01*
X299982Y145226D02*
X269732D01*
X299982Y155226D02*
X269732D01*
X299982Y165226D02*
X269732D01*
X300250Y255915D02*
X299774Y254612D01*
Y271185*
X296732Y274226*
X302750Y234360D02*
Y218209D01*
X306732Y214226*
Y194226D02*
Y214226D01*
X307750Y234360D02*
Y223209D01*
X316732Y214226*
X309232Y10476D02*
X289232D01*
X309232Y20476D02*
X289232D01*
X309232Y30476D02*
X289232D01*
X314232Y50476D02*
X294232D01*
X314232Y60476D02*
X294232D01*
X314232Y70476D02*
X294232D01*
X314232Y80476D02*
X294232D01*
X316732Y194226D02*
Y214226D01*
X319559Y372726D02*
X312726D01*
X270250Y330250*
X319559Y377726D02*
X307726D01*
X270250Y340250*
X319559Y382726D02*
X302726D01*
X270250Y350250*
X319559Y387726D02*
X297726D01*
X270250Y360250*
X319559Y392726D02*
X292726D01*
X270250Y370250*
X319559Y397726D02*
X287726D01*
X270250Y380250*
X319559Y402726D02*
X282726D01*
X270250Y390250*
X319559Y407726D02*
X277726D01*
X270250Y400250*
X319559Y412726D02*
X272726D01*
X270250Y410250*
X319559Y417726D02*
X272774D01*
X270250Y420250*
X319559Y422726D02*
X277774D01*
X270250Y430250*
X319559Y427726D02*
X282774D01*
X270250Y440250*
X319559Y432726D02*
X287774D01*
X270250Y450250*
X319559Y437726D02*
X292774D01*
X270250Y460250*
X319559Y442726D02*
X297774D01*
X270250Y470250*
X319559Y447726D02*
X302774D01*
X270250Y480250*
X329982Y60226D02*
Y30226D01*
X339982Y60226D02*
Y30226D01*
X340209Y190976D02*
Y220226D01*
X340906Y372726D02*
X347774D01*
X390250Y330250*
X340906Y377726D02*
X352774D01*
X390250Y340250*
X340906Y382726D02*
X357774D01*
X390250Y350250*
X340906Y387726D02*
X362774D01*
X390250Y360250*
X340906Y392726D02*
X367774D01*
X390250Y370250*
X340906Y397726D02*
X372774D01*
X390250Y380250*
X340906Y402726D02*
X377774D01*
X390250Y390250*
X340906Y407726D02*
X382774D01*
X390250Y400250*
X340906Y412726D02*
X387774D01*
X390250Y410250*
X340906Y417726D02*
X387726D01*
X390250Y420250*
X340906Y422726D02*
X382726D01*
X390250Y430250*
X340906Y427726D02*
X377726D01*
X390250Y440250*
X340906Y432726D02*
X372726D01*
X390250Y450250*
X340906Y437726D02*
X367726D01*
X390250Y460250*
X340906Y442726D02*
X362726D01*
X390250Y470250*
X340906Y447726D02*
X357726D01*
X390250Y480250*
X349732Y302476D02*
Y210476D01*
X349982Y60226D02*
Y30226D01*
X350209Y190976D02*
Y220226D01*
X353250Y114203D02*
X318959D01*
X299982Y95226*
X353250Y117352D02*
X312108D01*
X299982Y105226*
X353250Y120502D02*
X305258D01*
X299982Y115226*
X353250Y123652D02*
X301557D01*
X299982Y125226*
X353250Y126801D02*
X308407D01*
X299982Y135226*
X353250Y129951D02*
X315258D01*
X299982Y145226*
X353250Y133100D02*
X322108D01*
X299982Y155226*
X353250Y136250D02*
X328959D01*
X299982Y165226*
X358959Y113494D02*
Y89203D01*
X329982Y60226*
X359185Y137709D02*
Y172000D01*
X340209Y190976*
X359732Y302476D02*
Y214953D01*
X360209Y214476*
X359982Y60226D02*
Y30226D01*
X360209Y190976D02*
Y214476D01*
Y220226*
X362108Y113494D02*
Y82352D01*
X339982Y60226*
X362335Y137709D02*
Y178850D01*
X350209Y190976*
X365258Y113494D02*
Y75502D01*
X349982Y60226*
X365484Y137709D02*
Y185701D01*
X360209Y190976*
X368407Y113494D02*
Y68652D01*
X359982Y60226*
X368634Y137709D02*
Y189402D01*
X370209Y190976*
X369732Y210476D02*
Y231976D01*
X387482Y249726*
X369732Y210476D02*
Y247976D01*
X371482Y249726*
X369732Y210476D02*
X370732D01*
X375232Y214976*
Y235726*
X369982Y60226D02*
Y30226D01*
X370209Y190976D02*
Y220226D01*
Y230703*
X375232Y235726*
X371482Y258726D02*
X371557Y113494*
Y61801D01*
X369982Y60226*
X371783Y137709D02*
Y182551D01*
X380209Y190976*
X374707Y113494D02*
Y65502D01*
X379982Y60226*
X374933Y137709D02*
Y175701D01*
X390209Y190976*
X375232Y235726D02*
X379732Y240226D01*
X479732*
X499732Y220226*
Y70226*
X469732Y40226*
X377856Y113494D02*
Y72352D01*
X389982Y60226*
X378083Y137709D02*
Y168850D01*
X400209Y190976*
X379982Y60226D02*
Y30226D01*
X380209Y190976D02*
Y220226D01*
X381006Y113494D02*
Y79203D01*
X399982Y60226*
X381232Y140226D02*
Y162000D01*
X410209Y190976*
X386715Y114203D02*
X416006D01*
X439982Y90226*
X386715Y117352D02*
X422856D01*
X439982Y100226*
X386715Y120502D02*
X429707D01*
X439982Y110226*
X386715Y123652D02*
X436557D01*
X439982Y120226*
X386715Y126801D02*
X436557D01*
X439982Y130226*
X386715Y129951D02*
X429707D01*
X439982Y140226*
X386715Y133100D02*
X422856D01*
X439982Y150226*
X386715Y136250D02*
X416006D01*
X439982Y160226*
X387482Y258726D02*
Y284726D01*
X369732Y302476*
X389732Y40226D02*
X390482D01*
X394232Y36476*
Y25977*
X394357Y25852*
X389982Y60226D02*
Y30226D01*
X390209Y190976D02*
Y220226D01*
X394357Y25852D02*
X389982Y30226D01*
X399982Y60226D02*
Y30226D01*
X400209Y190976D02*
Y220226D01*
X410209Y190976D02*
Y220226D01*
X410250Y330250D02*
X390250D01*
X410250Y340250D02*
X390250D01*
X410250Y350250D02*
X390250D01*
X410250Y360250D02*
X390250D01*
X410250Y370250D02*
X390250D01*
X410250Y380250D02*
X390250D01*
X410250Y390250D02*
X390250D01*
X410250Y400250D02*
X390250D01*
X410250Y410250D02*
X390250D01*
X410250Y420250D02*
X390250D01*
X410250Y430250D02*
X390250D01*
X410250Y440250D02*
X390250D01*
X410250Y450250D02*
X390250D01*
X410250Y460250D02*
X390250D01*
X410250Y470250D02*
X390250D01*
X410250Y480250D02*
X390250D01*
X419232Y325476D02*
X439232D01*
X419232Y335476D02*
X439232D01*
X419232Y345476D02*
X439232D01*
X419232Y355476D02*
X439232D01*
X422959Y281976D02*
X390232D01*
X369732Y302476*
X429232Y290476D02*
X449232D01*
X429232Y300476D02*
X449232D01*
X429232Y310476D02*
X449232D01*
X429232Y369226D02*
Y389226D01*
Y400476D02*
Y390476D01*
Y440476D02*
Y450476D01*
Y471726D02*
Y451726D01*
X435492Y415555D02*
Y406736D01*
X429232Y400476*
X435492Y425398D02*
Y434217D01*
X429232Y440476*
X439232Y369226D02*
Y389226D01*
Y400476D02*
Y390476D01*
Y415555D02*
Y400476D01*
Y425398D02*
Y440476D01*
Y471726*
Y451726*
X439982Y90226D02*
X469732D01*
X439982Y100226D02*
X469732D01*
X439982Y110226D02*
X469732D01*
X439982Y120226D02*
X469732D01*
X439982Y130226D02*
X469732D01*
X439982Y140226D02*
X469732D01*
X439982Y150226D02*
X469732D01*
X439982Y160226D02*
X469732D01*
X442972Y415555D02*
Y406736D01*
X449232Y400476*
X442972Y425398D02*
Y434217D01*
X449232Y440476*
Y369226D02*
Y389226D01*
Y400476D02*
Y390476D01*
Y440476D02*
Y450476D01*
Y471726D02*
Y451726D01*
X450571Y336638D02*
X450394D01*
X439232Y325476*
X450571Y339197D02*
X442953D01*
X439232Y335476*
X450571Y341756D02*
X442953D01*
X439232Y345476*
X450571Y344315D02*
X450394D01*
X439232Y355476*
X459732Y30226D02*
X419732D01*
X409732Y20226*
X399982*
X394357Y25852*
X459732Y100226D02*
X490709D01*
X460492Y297917D02*
X456673D01*
X449232Y290476*
X460492Y300476D02*
X449232D01*
X460492Y303035D02*
X456673D01*
X449232Y310476*
X464232Y374226D02*
Y394226D01*
X464482Y85476D02*
X459732Y90226D01*
X467894Y336638D02*
X468071D01*
X479232Y325476*
X467894Y339197D02*
X475512D01*
X479232Y335476*
X467894Y341756D02*
X475512D01*
X479232Y345476*
X467894Y344315D02*
X468071D01*
X479232Y355476*
X467972Y297917D02*
X471791D01*
X479232Y290476*
X467972Y300476D02*
X479232D01*
X467972Y303035D02*
X471791D01*
X479232Y310476*
X469732Y20226D02*
Y15976D01*
X462232Y8476*
X438482*
X423482Y23476*
X469732Y30226D02*
X468982D01*
X464482Y34726*
Y85476*
X469732Y90226D02*
X469232D01*
X464482Y85476*
X470250Y414587D02*
Y400244D01*
X464232Y394226*
X474232Y374226D02*
Y394226D01*
Y474226D02*
Y454226D01*
X475250Y414587D02*
Y395244D01*
X474232Y394226*
X480250Y414587D02*
Y398209D01*
X484232Y394226*
Y374226D02*
Y394226D01*
X485250Y414587D02*
Y403209D01*
X494232Y394226*
Y374226D02*
Y394226D01*
X499232Y290476D02*
X479232D01*
X499232Y300476D02*
X479232D01*
X499232Y310476D02*
X479232D01*
X499232Y325476D02*
X479232D01*
X499232Y335476D02*
X479232D01*
X499232Y345476D02*
X479232D01*
X499232Y355476D02*
X479232D01*
D02*
D92*
X371482Y258726D03*
X422959Y281976D03*
X423482Y23476D03*
X490709Y100226D03*
D02*
D93*
X239232Y110476D02*
Y90976D01*
X239732Y90476*
X239232Y130476D02*
Y149976D01*
X239732Y150476*
D02*
D94*
X30250Y20250D03*
Y30250D03*
Y40250D03*
Y50250D03*
Y60250D03*
Y70250D03*
Y80250D03*
Y90250D03*
Y100250D03*
Y110250D03*
Y120250D03*
Y130250D03*
Y140250D03*
Y150250D03*
Y160250D03*
Y170250D03*
Y190250D03*
Y200250D03*
Y210250D03*
Y220250D03*
Y230250D03*
Y240250D03*
Y250250D03*
Y260250D03*
Y270250D03*
Y280250D03*
Y290250D03*
Y300250D03*
Y310250D03*
Y320250D03*
X40250Y20250D03*
Y30250D03*
Y40250D03*
Y50250D03*
Y60250D03*
Y70250D03*
Y80250D03*
Y90250D03*
Y100250D03*
Y110250D03*
Y120250D03*
Y130250D03*
Y140250D03*
Y150250D03*
Y160250D03*
Y170250D03*
Y190250D03*
Y200250D03*
Y210250D03*
Y220250D03*
Y230250D03*
Y240250D03*
Y250250D03*
Y260250D03*
Y270250D03*
Y280250D03*
Y290250D03*
Y300250D03*
Y310250D03*
Y320250D03*
Y340250D03*
Y350250D03*
Y360250D03*
Y370250D03*
Y380250D03*
Y390250D03*
Y400250D03*
Y410250D03*
Y420250D03*
Y430250D03*
Y440250D03*
Y450250D03*
Y460250D03*
Y470250D03*
X50250Y340250D03*
Y350250D03*
Y360250D03*
Y370250D03*
Y380250D03*
Y390250D03*
Y400250D03*
Y410250D03*
Y420250D03*
Y430250D03*
Y440250D03*
Y450250D03*
Y460250D03*
Y470250D03*
X76732Y164226D03*
Y174226D03*
Y184226D03*
Y324226D03*
X79232Y10476D03*
Y20476D03*
Y30476D03*
Y40476D03*
X86732Y164226D03*
Y174226D03*
Y184226D03*
Y324226D03*
X89232Y10476D03*
Y20476D03*
Y30476D03*
Y40476D03*
X96732Y164226D03*
Y174226D03*
Y184226D03*
X99232Y460476D03*
Y470476D03*
Y480476D03*
X109232Y460476D03*
Y470476D03*
Y480476D03*
X129232Y10476D03*
Y20476D03*
Y30476D03*
Y40476D03*
X136732Y164226D03*
Y174226D03*
Y184226D03*
X139232Y10476D03*
Y20476D03*
Y30476D03*
Y40476D03*
Y460476D03*
Y470476D03*
Y480476D03*
X146732Y164226D03*
Y174226D03*
Y184226D03*
Y314226D03*
Y324226D03*
Y334226D03*
Y344226D03*
X149232Y460476D03*
Y470476D03*
Y480476D03*
X156732Y164226D03*
Y174226D03*
Y184226D03*
Y314226D03*
Y324226D03*
Y334226D03*
Y344226D03*
X190250Y340250D03*
Y350250D03*
Y360250D03*
Y370250D03*
Y380250D03*
Y390250D03*
Y400250D03*
Y410250D03*
Y420250D03*
Y430250D03*
Y440250D03*
Y450250D03*
Y460250D03*
Y470250D03*
X200250Y20250D03*
Y30250D03*
Y40250D03*
Y50250D03*
Y60250D03*
Y70250D03*
Y80250D03*
Y90250D03*
Y100250D03*
Y110250D03*
Y120250D03*
Y130250D03*
Y140250D03*
Y150250D03*
Y160250D03*
Y170250D03*
Y190250D03*
Y200250D03*
Y210250D03*
Y220250D03*
Y230250D03*
Y240250D03*
Y250250D03*
Y260250D03*
Y270250D03*
Y280250D03*
Y290250D03*
Y300250D03*
Y310250D03*
Y320250D03*
Y340250D03*
Y350250D03*
Y360250D03*
Y370250D03*
Y380250D03*
Y390250D03*
Y400250D03*
Y410250D03*
Y420250D03*
Y430250D03*
Y440250D03*
Y450250D03*
Y460250D03*
Y470250D03*
X210250Y20250D03*
Y30250D03*
Y40250D03*
Y50250D03*
Y60250D03*
Y70250D03*
Y80250D03*
Y90250D03*
Y100250D03*
Y110250D03*
Y120250D03*
Y130250D03*
Y140250D03*
Y150250D03*
Y160250D03*
Y170250D03*
Y190250D03*
Y200250D03*
Y210250D03*
Y220250D03*
Y230250D03*
Y240250D03*
Y250250D03*
Y260250D03*
Y270250D03*
Y280250D03*
Y290250D03*
Y300250D03*
Y310250D03*
Y320250D03*
X236732Y204226D03*
Y214226D03*
Y224226D03*
Y264226D03*
Y274226D03*
Y284226D03*
X244232Y50476D03*
Y60476D03*
Y70476D03*
Y80476D03*
X246732Y204226D03*
Y214226D03*
Y224226D03*
Y264226D03*
Y274226D03*
Y284226D03*
X249232Y10476D03*
Y20476D03*
Y30476D03*
X254232Y50476D03*
Y60476D03*
Y70476D03*
Y80476D03*
X256732Y204226D03*
Y214226D03*
Y224226D03*
Y264226D03*
Y274226D03*
Y284226D03*
X259232Y10476D03*
Y20476D03*
Y30476D03*
X260250Y330250D03*
Y340250D03*
Y350250D03*
Y360250D03*
Y370250D03*
Y380250D03*
Y390250D03*
Y400250D03*
Y410250D03*
Y420250D03*
Y430250D03*
Y440250D03*
Y450250D03*
Y460250D03*
Y470250D03*
Y480250D03*
X270250Y330250D03*
Y340250D03*
Y350250D03*
Y360250D03*
Y370250D03*
Y380250D03*
Y390250D03*
Y400250D03*
Y410250D03*
Y420250D03*
Y430250D03*
Y440250D03*
Y450250D03*
Y460250D03*
Y470250D03*
Y480250D03*
X279982Y95226D03*
Y105226D03*
Y115226D03*
Y125226D03*
Y135226D03*
Y145226D03*
Y155226D03*
Y165226D03*
X286732Y204226D03*
Y214226D03*
X289232Y10476D03*
Y20476D03*
Y30476D03*
X289982Y95226D03*
Y105226D03*
Y115226D03*
Y125226D03*
Y135226D03*
Y145226D03*
Y155226D03*
Y165226D03*
X294232Y50476D03*
Y60476D03*
Y70476D03*
Y80476D03*
X296732Y204226D03*
Y214226D03*
Y274226D03*
Y284226D03*
X299232Y10476D03*
Y20476D03*
Y30476D03*
X299982Y95226D03*
Y105226D03*
Y115226D03*
Y125226D03*
Y135226D03*
Y145226D03*
Y155226D03*
Y165226D03*
X304232Y50476D03*
Y60476D03*
Y70476D03*
Y80476D03*
X306732Y204226D03*
Y214226D03*
X316732Y204226D03*
Y214226D03*
X329732Y40226D03*
Y50226D03*
X329982Y60226D03*
X339732Y40226D03*
Y50226D03*
Y200226D03*
Y210476D03*
Y302476D03*
X339982Y60226D03*
X340209Y190976D03*
X349732Y40226D03*
Y50226D03*
Y200226D03*
Y210476D03*
Y302476D03*
X349982Y60226D03*
X350209Y190976D03*
X359732Y40226D03*
Y50226D03*
Y200226D03*
Y210476D03*
Y302476D03*
X359982Y60226D03*
X360209Y190976D03*
X369732Y40226D03*
Y50226D03*
Y200226D03*
Y210476D03*
Y302476D03*
X369982Y60226D03*
X370209Y190976D03*
X379732Y40226D03*
Y50226D03*
Y200226D03*
Y210476D03*
Y302476D03*
X379982Y60226D03*
X380209Y190976D03*
X389732Y40226D03*
Y50226D03*
Y200226D03*
Y210476D03*
Y302476D03*
X389982Y60226D03*
X390209Y190976D03*
X390250Y330250D03*
Y340250D03*
Y350250D03*
Y360250D03*
Y370250D03*
Y380250D03*
Y390250D03*
Y400250D03*
Y410250D03*
Y420250D03*
Y430250D03*
Y440250D03*
Y450250D03*
Y460250D03*
Y470250D03*
Y480250D03*
X399732Y40226D03*
Y50226D03*
Y200226D03*
Y210476D03*
X399982Y60226D03*
X400209Y190976D03*
X400250Y330250D03*
Y340250D03*
Y350250D03*
Y360250D03*
Y370250D03*
Y380250D03*
Y390250D03*
Y400250D03*
Y410250D03*
Y420250D03*
Y430250D03*
Y440250D03*
Y450250D03*
Y460250D03*
Y470250D03*
Y480250D03*
X409732Y200226D03*
Y210476D03*
X410209Y190976D03*
X429232Y325476D03*
Y335476D03*
Y345476D03*
Y355476D03*
Y380476D03*
Y390476D03*
Y400476D03*
Y440476D03*
Y450476D03*
Y460476D03*
X439232Y290476D03*
Y300476D03*
Y310476D03*
Y325476D03*
Y335476D03*
Y345476D03*
Y355476D03*
Y380476D03*
Y390476D03*
Y400476D03*
Y440476D03*
Y450476D03*
Y460476D03*
X439982Y90226D03*
Y100226D03*
Y110226D03*
Y120226D03*
Y130226D03*
Y140226D03*
Y150226D03*
Y160226D03*
X449232Y290476D03*
Y300476D03*
Y310476D03*
Y380476D03*
Y390476D03*
Y400476D03*
Y440476D03*
Y450476D03*
Y460476D03*
X449732Y90226D03*
Y100226D03*
Y110226D03*
Y120226D03*
Y130226D03*
Y140226D03*
Y150226D03*
Y160226D03*
X459732Y90226D03*
Y100226D03*
Y110226D03*
Y120226D03*
Y130226D03*
Y140226D03*
Y150226D03*
Y160226D03*
X464232Y384226D03*
Y394226D03*
X474232Y384226D03*
Y394226D03*
Y454226D03*
Y464226D03*
X479232Y290476D03*
Y300476D03*
Y310476D03*
Y325476D03*
Y335476D03*
Y345476D03*
Y355476D03*
X484232Y384226D03*
Y394226D03*
X489232Y290476D03*
Y300476D03*
Y310476D03*
Y325476D03*
Y335476D03*
Y345476D03*
Y355476D03*
X494232Y384226D03*
Y394226D03*
D02*
D95*
X353250Y114203D03*
Y117352D03*
Y120502D03*
Y123652D03*
Y126801D03*
Y129951D03*
Y133100D03*
Y136250D03*
X386715Y114203D03*
Y117352D03*
Y120502D03*
Y123652D03*
Y126801D03*
Y129951D03*
Y133100D03*
Y136250D03*
D02*
D96*
X358959Y108494D03*
Y141959D03*
X362108Y108494D03*
Y141959D03*
X365258Y108494D03*
Y141959D03*
X368407Y108494D03*
Y141959D03*
X371557Y108494D03*
Y141959D03*
X374707Y108494D03*
Y141959D03*
X377856Y108494D03*
Y141959D03*
X381006Y108494D03*
Y141959D03*
D02*
D97*
X20250Y20250D03*
Y30250D03*
Y40250D03*
Y50250D03*
Y60250D03*
Y70250D03*
Y80250D03*
Y90250D03*
Y100250D03*
Y110250D03*
Y120250D03*
Y130250D03*
Y140250D03*
Y150250D03*
Y160250D03*
Y170250D03*
Y190250D03*
Y200250D03*
Y210250D03*
Y220250D03*
Y230250D03*
Y240250D03*
Y250250D03*
Y260250D03*
Y270250D03*
Y280250D03*
Y290250D03*
Y300250D03*
Y310250D03*
Y320250D03*
X30250Y340250D03*
Y350250D03*
Y360250D03*
Y370250D03*
Y380250D03*
Y390250D03*
Y400250D03*
Y410250D03*
Y420250D03*
Y430250D03*
Y440250D03*
Y450250D03*
Y460250D03*
Y470250D03*
X66732Y164226D03*
Y174226D03*
Y184226D03*
Y324226D03*
X69232Y10476D03*
Y20476D03*
Y30476D03*
Y40476D03*
X89232Y460476D03*
Y470476D03*
Y480476D03*
X149232Y10476D03*
Y20476D03*
Y30476D03*
Y40476D03*
X159232Y460476D03*
Y470476D03*
Y480476D03*
X166732Y164226D03*
Y174226D03*
Y184226D03*
Y314226D03*
Y324226D03*
Y334226D03*
Y344226D03*
X210250Y340250D03*
Y350250D03*
Y360250D03*
Y370250D03*
Y380250D03*
Y390250D03*
Y400250D03*
Y410250D03*
Y420250D03*
Y430250D03*
Y440250D03*
Y450250D03*
Y460250D03*
Y470250D03*
X220250Y20250D03*
Y30250D03*
Y40250D03*
Y50250D03*
Y60250D03*
Y70250D03*
Y80250D03*
Y90250D03*
Y100250D03*
Y110250D03*
Y120250D03*
Y130250D03*
Y140250D03*
Y150250D03*
Y160250D03*
Y170250D03*
Y190250D03*
Y200250D03*
Y210250D03*
Y220250D03*
Y230250D03*
Y240250D03*
Y250250D03*
Y260250D03*
Y270250D03*
Y280250D03*
Y290250D03*
Y300250D03*
Y310250D03*
Y320250D03*
X234232Y50476D03*
Y60476D03*
Y70476D03*
Y80476D03*
X239232Y10476D03*
Y20476D03*
Y30476D03*
X250250Y330250D03*
Y340250D03*
Y350250D03*
Y360250D03*
Y370250D03*
Y380250D03*
Y390250D03*
Y400250D03*
Y410250D03*
Y420250D03*
Y430250D03*
Y440250D03*
Y450250D03*
Y460250D03*
Y470250D03*
Y480250D03*
X269732Y95226D03*
Y105226D03*
Y115226D03*
Y125226D03*
Y135226D03*
Y145226D03*
Y155226D03*
Y165226D03*
X309232Y10476D03*
Y20476D03*
Y30476D03*
X314232Y50476D03*
Y60476D03*
Y70476D03*
Y80476D03*
X410250Y330250D03*
Y340250D03*
Y350250D03*
Y360250D03*
Y370250D03*
Y380250D03*
Y390250D03*
Y400250D03*
Y410250D03*
Y420250D03*
Y430250D03*
Y440250D03*
Y450250D03*
Y460250D03*
Y470250D03*
Y480250D03*
X419232Y325476D03*
Y335476D03*
Y345476D03*
Y355476D03*
X429232Y290476D03*
Y300476D03*
Y310476D03*
X469732Y90226D03*
Y100226D03*
Y110226D03*
Y120226D03*
Y130226D03*
Y140226D03*
Y150226D03*
Y160226D03*
X499232Y290476D03*
Y300476D03*
Y310476D03*
Y325476D03*
Y335476D03*
Y345476D03*
Y355476D03*
D02*
D98*
X236732Y194226D03*
Y294226D03*
X246732Y194226D03*
Y294226D03*
X256732Y194226D03*
Y294226D03*
X286732Y194226D03*
X296732D03*
Y294226D03*
X306732Y194226D03*
X316732D03*
X329982Y30226D03*
X339982D03*
X340209Y220226D03*
X349982Y30226D03*
X350209Y220226D03*
X359982Y30226D03*
X360209Y220226D03*
X369982Y30226D03*
X370209Y220226D03*
X379982Y30226D03*
X380209Y220226D03*
X389982Y30226D03*
X390209Y220226D03*
X399982Y30226D03*
X400209Y220226D03*
X410209D03*
X429232Y369226D03*
Y471726D03*
X439232Y369226D03*
Y471726D03*
X449232Y369226D03*
Y471726D03*
X464232Y374226D03*
X474232D03*
Y474226D03*
X484232Y374226D03*
X494232D03*
D02*
D99*
X239732Y90476D03*
Y150476D03*
X248732Y90476D03*
Y150476D03*
D02*
D100*
X239232Y110476D03*
Y130476D03*
D02*
D101*
X459732Y20226D03*
Y30226D03*
Y40226D03*
X469732Y20226D03*
Y30226D03*
Y40226D03*
D02*
D102*
X371482Y249726D03*
Y258726D03*
X387482Y249726D03*
Y258726D03*
D02*
D103*
X100010Y378476D03*
Y383476D03*
Y388476D03*
Y393476D03*
Y398476D03*
Y403476D03*
Y408476D03*
Y413476D03*
Y418476D03*
Y423476D03*
Y428476D03*
Y433476D03*
Y438476D03*
Y443476D03*
X143907Y378476D03*
Y383476D03*
Y388476D03*
Y393476D03*
Y398476D03*
Y403476D03*
Y408476D03*
Y413476D03*
Y418476D03*
Y423476D03*
Y428476D03*
Y433476D03*
Y438476D03*
Y443476D03*
D02*
D104*
X125098Y316476D03*
Y321476D03*
Y326476D03*
Y331476D03*
D02*
D105*
X112598Y323976D03*
D02*
D106*
X103543D03*
D02*
D107*
X106453Y243616D03*
Y246175D03*
Y248734D03*
Y251293D03*
Y253852D03*
Y256411D03*
Y258970D03*
Y261530D03*
Y264089D03*
Y266648D03*
Y269207D03*
Y271766D03*
Y274325D03*
Y276884D03*
X134012Y243616D03*
Y246175D03*
Y248734D03*
Y251293D03*
Y253852D03*
Y256411D03*
Y258970D03*
Y261530D03*
Y264089D03*
Y266648D03*
Y269207D03*
Y271766D03*
Y274325D03*
Y276884D03*
D02*
D108*
X105469Y76104D03*
Y79254D03*
Y82404D03*
Y85553D03*
Y88703D03*
Y91852D03*
Y95002D03*
Y98152D03*
Y101301D03*
Y104451D03*
Y107600D03*
Y110750D03*
Y113900D03*
Y117049D03*
Y120199D03*
Y123348D03*
X134996Y76104D03*
Y79254D03*
Y82404D03*
Y85553D03*
Y88703D03*
Y91852D03*
Y95002D03*
Y98152D03*
Y101301D03*
Y104451D03*
Y107600D03*
Y110750D03*
Y113900D03*
Y117049D03*
Y120199D03*
Y123348D03*
D02*
D109*
X292750Y234360D03*
X297750D03*
X302750D03*
X307750D03*
X470250Y414587D03*
X475250D03*
X480250D03*
X485250D03*
D02*
D110*
X300250Y246860D03*
X477750Y427087D03*
D02*
D111*
X300250Y255915D03*
X477750Y436142D03*
D02*
D112*
X319559Y372726D03*
Y377726D03*
Y382726D03*
Y387726D03*
Y392726D03*
Y397726D03*
Y402726D03*
Y407726D03*
Y412726D03*
Y417726D03*
Y422726D03*
Y427726D03*
Y432726D03*
Y437726D03*
Y442726D03*
Y447726D03*
X340906Y372726D03*
Y377726D03*
Y382726D03*
Y387726D03*
Y392726D03*
Y397726D03*
Y402726D03*
Y407726D03*
Y412726D03*
Y417726D03*
Y422726D03*
Y427726D03*
Y432726D03*
Y437726D03*
Y442726D03*
Y447726D03*
D02*
D113*
X112079Y170760D03*
Y174500D03*
Y178240D03*
X121921Y170760D03*
Y174500D03*
Y178240D03*
D02*
D114*
X100571Y21638D03*
Y24197D03*
Y26756D03*
Y29315D03*
X117894Y21638D03*
Y24197D03*
Y26756D03*
Y29315D03*
X265571Y61638D03*
Y64197D03*
Y66756D03*
Y69315D03*
X282894Y61638D03*
Y64197D03*
Y66756D03*
Y69315D03*
X450571Y336638D03*
Y339197D03*
Y341756D03*
Y344315D03*
X467894Y336638D03*
Y339197D03*
Y341756D03*
Y344315D03*
D02*
D115*
X120492Y467917D03*
Y470476D03*
Y473035D03*
X127972Y467917D03*
Y470476D03*
Y473035D03*
X270492Y17917D03*
Y20476D03*
Y23035D03*
X277972Y17917D03*
Y20476D03*
Y23035D03*
X460492Y297917D03*
Y300476D03*
Y303035D03*
X467972Y297917D03*
Y300476D03*
Y303035D03*
D02*
D116*
X242992Y239305D03*
Y249148D03*
X246732Y239305D03*
Y249148D03*
X250472Y239305D03*
Y249148D03*
X435492Y415555D03*
Y425398D03*
X439232Y415555D03*
Y425398D03*
X442972Y415555D03*
Y425398D03*
X0Y0D02*
M02*
